\relax 
\citation{springel2010pur}
\citation{Johnsen:2010:AHM:1670833.1670927}
\Newlabel{1}{1}
\@writefile{toc}{\contentsline {section}{\numberline {1}Introduction}{1}}
\citation{springel2010pur}
\citation{Luo2004304}
\@writefile{toc}{\contentsline {section}{\numberline {2}Euler equations}{3}}
\newlabel{eq:claw}{{1}{3}}
\@writefile{toc}{\contentsline {section}{\numberline {3}Discontinuous Galerkin scheme}{4}}
\@writefile{toc}{\contentsline {subsection}{\numberline {3.1}Mesh and solution space}{4}}
\newlabel{eq:ortho}{{2}{5}}
\@writefile{toc}{\contentsline {subsection}{\numberline {3.2}Derivation of the scheme}{5}}
\citation{Gassner20114232}
\@writefile{toc}{\contentsline {subsection}{\numberline {3.3}Mesh velocity}{7}}
\citation{Owren:1992:DEC:141072.141096}
\@writefile{toc}{\contentsline {section}{\numberline {4}Computing the predictor}{8}}
\@writefile{lof}{\contentsline {figure}{\numberline {1}{\ignorespaces Quadrature points for third order scheme}}{9}}
\newlabel{fig:cerk2}{{1}{9}}
\citation{Zhang:2010:PHO:1864819.1865066}
\@writefile{toc}{\contentsline {section}{\numberline {5}Limiter}{10}}
\@writefile{toc}{\contentsline {section}{\numberline {6}Positivity property}{10}}
\newlabel{eq:fvm}{{3}{10}}
\citation{Zhang:2010:PHO:1864819.1865066}
\newlabel{eq:dtpos}{{4}{11}}
\@writefile{toc}{\contentsline {section}{\numberline {7}Grid coarsening and refinement}{12}}
\@writefile{toc}{\contentsline {section}{\numberline {8}Linear advection equation}{12}}
\@writefile{toc}{\contentsline {section}{\numberline {9}Numerical results}{12}}
\@writefile{lot}{\contentsline {table}{\numberline {1}{\ignorespaces Order of accuracy study on static mesh}}{13}}
\newlabel{tab:ord0}{{1}{13}}
\@writefile{lot}{\contentsline {table}{\numberline {2}{\ignorespaces Order of accuracy study on moving mesh}}{13}}
\newlabel{tab:ord1}{{2}{13}}
\@writefile{toc}{\contentsline {subsection}{\numberline {9.1}Order of accuracy}{13}}
\@writefile{toc}{\contentsline {subsection}{\numberline {9.2}Sod problem}{13}}
\@writefile{lof}{\contentsline {figure}{\numberline {2}{\ignorespaces Sod problem using 100 cells and TVD limiter: (a) static mesh (b) moving mesh}}{14}}
\@writefile{toc}{\contentsline {subsection}{\numberline {9.3}Lax problem}{14}}
\@writefile{toc}{\contentsline {subsection}{\numberline {9.4}Shu-Osher problem}{14}}
\@writefile{toc}{\contentsline {subsection}{\numberline {9.5}Low density problem}{14}}
\@writefile{lof}{\contentsline {figure}{\numberline {3}{\ignorespaces Shu-Osher problem: (a) static mesh, 200 cells, $M=0$ (b) moving mesh, 200 cells, $M=0$ (c) static mesh, 200 cells, $M=100$ (d) static mesh, 300 cells, $M=100$}}{15}}
\citation{Roe1981357}
\citation{Luo2004304}
\@writefile{toc}{\contentsline {subsection}{\numberline {9.6}Blast problem}{16}}
\@writefile{toc}{\contentsline {section}{\numberline {10}Summary and Conclusions}{16}}
\@writefile{toc}{\contentsline {section}{\numberline {Appendix A}Numerical flux}{16}}
\@writefile{toc}{\contentsline {subsection}{\numberline {Appendix A.1}Rusanov flux}{16}}
\newlabel{sec:rusanov}{{Appendix A.1}{16}}
\@writefile{toc}{\contentsline {subsection}{\numberline {Appendix A.2}Roe flux}{16}}
\citation{Mandal2012148}
\@writefile{toc}{\contentsline {subsection}{\numberline {Appendix A.3}HLLC flux}{17}}
\@writefile{toc}{\contentsline {subsection}{\numberline {Appendix A.4}HLL-CPS flux}{17}}
\@writefile{toc}{\contentsline {section}{\numberline {Appendix B}Continuous expansion Runge-Kutta (CERK) schemes}{18}}
\bibstyle{siam}
\bibdata{bibdesk}
\bibcite{Gassner20114232}{{1}{}{{}}{{}}}
\bibcite{Johnsen:2010:AHM:1670833.1670927}{{2}{}{{}}{{}}}
\bibcite{Luo2004304}{{3}{}{{}}{{}}}
\bibcite{Mandal2012148}{{4}{}{{}}{{}}}
\@writefile{toc}{\contentsline {subsection}{\numberline {Appendix B.1}Second order (CERK2)}{19}}
\@writefile{toc}{\contentsline {subsection}{\numberline {Appendix B.2}Third order (CERK3)}{19}}
\bibcite{Owren:1992:DEC:141072.141096}{{5}{}{{}}{{}}}
\bibcite{Roe1981357}{{6}{}{{}}{{}}}
\bibcite{springel2010pur}{{7}{}{{}}{{}}}
\bibcite{Zhang:2010:PHO:1864819.1865066}{{8}{}{{}}{{}}}
\providecommand\NAT@force@numbers{}\NAT@force@numbers
