%!PS-Adobe-2.0
%%Title: sod.eps
%%Creator: gnuplot 5.0 patchlevel 1
%%CreationDate: Wed Sep 30 20:53:48 2015
%%DocumentFonts: (atend)
%%BoundingBox: 50 50 554 770
%%Orientation: Landscape
%%Pages: (atend)
%%EndComments
%%BeginProlog
/gnudict 256 dict def
gnudict begin
%
% The following true/false flags may be edited by hand if desired.
% The unit line width and grayscale image gamma correction may also be changed.
%
/Color false def
/Blacktext false def
/Solid false def
/Dashlength 1 def
/Landscape true def
/Level1 false def
/Level3 false def
/Rounded false def
/ClipToBoundingBox false def
/SuppressPDFMark false def
/TransparentPatterns false def
/gnulinewidth 5.000 def
/userlinewidth gnulinewidth def
/Gamma 1.0 def
/BackgroundColor {-1.000 -1.000 -1.000} def
%
/vshift -46 def
/dl1 {
  10.0 Dashlength userlinewidth gnulinewidth div mul mul mul
  Rounded { currentlinewidth 0.75 mul sub dup 0 le { pop 0.01 } if } if
} def
/dl2 {
  10.0 Dashlength userlinewidth gnulinewidth div mul mul mul
  Rounded { currentlinewidth 0.75 mul add } if
} def
/hpt_ 31.5 def
/vpt_ 31.5 def
/hpt hpt_ def
/vpt vpt_ def
/doclip {
  ClipToBoundingBox {
    newpath 50 50 moveto 554 50 lineto 554 770 lineto 50 770 lineto closepath
    clip
  } if
} def
%
% Gnuplot Prolog Version 5.0 (Dec 2014)
%
%/SuppressPDFMark true def
%
/M {moveto} bind def
/L {lineto} bind def
/R {rmoveto} bind def
/V {rlineto} bind def
/N {newpath moveto} bind def
/Z {closepath} bind def
/C {setrgbcolor} bind def
/f {rlineto fill} bind def
/g {setgray} bind def
/Gshow {show} def   % May be redefined later in the file to support UTF-8
/vpt2 vpt 2 mul def
/hpt2 hpt 2 mul def
/Lshow {currentpoint stroke M 0 vshift R 
	Blacktext {gsave 0 setgray textshow grestore} {textshow} ifelse} def
/Rshow {currentpoint stroke M dup stringwidth pop neg vshift R
	Blacktext {gsave 0 setgray textshow grestore} {textshow} ifelse} def
/Cshow {currentpoint stroke M dup stringwidth pop -2 div vshift R 
	Blacktext {gsave 0 setgray textshow grestore} {textshow} ifelse} def
/UP {dup vpt_ mul /vpt exch def hpt_ mul /hpt exch def
  /hpt2 hpt 2 mul def /vpt2 vpt 2 mul def} def
/DL {Color {setrgbcolor Solid {pop []} if 0 setdash}
 {pop pop pop 0 setgray Solid {pop []} if 0 setdash} ifelse} def
/BL {stroke userlinewidth 2 mul setlinewidth
	Rounded {1 setlinejoin 1 setlinecap} if} def
/AL {stroke userlinewidth 2 div setlinewidth
	Rounded {1 setlinejoin 1 setlinecap} if} def
/UL {dup gnulinewidth mul /userlinewidth exch def
	dup 1 lt {pop 1} if 10 mul /udl exch def} def
/PL {stroke userlinewidth setlinewidth
	Rounded {1 setlinejoin 1 setlinecap} if} def
3.8 setmiterlimit
% Classic Line colors (version 5.0)
/LCw {1 1 1} def
/LCb {0 0 0} def
/LCa {0 0 0} def
/LC0 {1 0 0} def
/LC1 {0 1 0} def
/LC2 {0 0 1} def
/LC3 {1 0 1} def
/LC4 {0 1 1} def
/LC5 {1 1 0} def
/LC6 {0 0 0} def
/LC7 {1 0.3 0} def
/LC8 {0.5 0.5 0.5} def
% Default dash patterns (version 5.0)
/LTw {PL [] 1 setgray} def
/LTb {BL [] LCb DL} def
/LTa {AL [1 udl mul 2 udl mul] 0 setdash LCa setrgbcolor} def
/LT0 {PL [] LC0 DL} def
/LT1 {PL [2 dl1 3 dl2] LC1 DL} def
/LT2 {PL [1 dl1 1.5 dl2] LC2 DL} def
/LT3 {PL [6 dl1 2 dl2 1 dl1 2 dl2] LC3 DL} def
/LT4 {PL [1 dl1 2 dl2 6 dl1 2 dl2 1 dl1 2 dl2] LC4 DL} def
/LT5 {PL [4 dl1 2 dl2] LC5 DL} def
/LT6 {PL [1.5 dl1 1.5 dl2 1.5 dl1 1.5 dl2 1.5 dl1 6 dl2] LC6 DL} def
/LT7 {PL [3 dl1 3 dl2 1 dl1 3 dl2] LC7 DL} def
/LT8 {PL [2 dl1 2 dl2 2 dl1 6 dl2] LC8 DL} def
/SL {[] 0 setdash} def
/Pnt {stroke [] 0 setdash gsave 1 setlinecap M 0 0 V stroke grestore} def
/Dia {stroke [] 0 setdash 2 copy vpt add M
  hpt neg vpt neg V hpt vpt neg V
  hpt vpt V hpt neg vpt V closepath stroke
  Pnt} def
/Pls {stroke [] 0 setdash vpt sub M 0 vpt2 V
  currentpoint stroke M
  hpt neg vpt neg R hpt2 0 V stroke
 } def
/Box {stroke [] 0 setdash 2 copy exch hpt sub exch vpt add M
  0 vpt2 neg V hpt2 0 V 0 vpt2 V
  hpt2 neg 0 V closepath stroke
  Pnt} def
/Crs {stroke [] 0 setdash exch hpt sub exch vpt add M
  hpt2 vpt2 neg V currentpoint stroke M
  hpt2 neg 0 R hpt2 vpt2 V stroke} def
/TriU {stroke [] 0 setdash 2 copy vpt 1.12 mul add M
  hpt neg vpt -1.62 mul V
  hpt 2 mul 0 V
  hpt neg vpt 1.62 mul V closepath stroke
  Pnt} def
/Star {2 copy Pls Crs} def
/BoxF {stroke [] 0 setdash exch hpt sub exch vpt add M
  0 vpt2 neg V hpt2 0 V 0 vpt2 V
  hpt2 neg 0 V closepath fill} def
/TriUF {stroke [] 0 setdash vpt 1.12 mul add M
  hpt neg vpt -1.62 mul V
  hpt 2 mul 0 V
  hpt neg vpt 1.62 mul V closepath fill} def
/TriD {stroke [] 0 setdash 2 copy vpt 1.12 mul sub M
  hpt neg vpt 1.62 mul V
  hpt 2 mul 0 V
  hpt neg vpt -1.62 mul V closepath stroke
  Pnt} def
/TriDF {stroke [] 0 setdash vpt 1.12 mul sub M
  hpt neg vpt 1.62 mul V
  hpt 2 mul 0 V
  hpt neg vpt -1.62 mul V closepath fill} def
/DiaF {stroke [] 0 setdash vpt add M
  hpt neg vpt neg V hpt vpt neg V
  hpt vpt V hpt neg vpt V closepath fill} def
/Pent {stroke [] 0 setdash 2 copy gsave
  translate 0 hpt M 4 {72 rotate 0 hpt L} repeat
  closepath stroke grestore Pnt} def
/PentF {stroke [] 0 setdash gsave
  translate 0 hpt M 4 {72 rotate 0 hpt L} repeat
  closepath fill grestore} def
/Circle {stroke [] 0 setdash 2 copy
  hpt 0 360 arc stroke Pnt} def
/CircleF {stroke [] 0 setdash hpt 0 360 arc fill} def
/C0 {BL [] 0 setdash 2 copy moveto vpt 90 450 arc} bind def
/C1 {BL [] 0 setdash 2 copy moveto
	2 copy vpt 0 90 arc closepath fill
	vpt 0 360 arc closepath} bind def
/C2 {BL [] 0 setdash 2 copy moveto
	2 copy vpt 90 180 arc closepath fill
	vpt 0 360 arc closepath} bind def
/C3 {BL [] 0 setdash 2 copy moveto
	2 copy vpt 0 180 arc closepath fill
	vpt 0 360 arc closepath} bind def
/C4 {BL [] 0 setdash 2 copy moveto
	2 copy vpt 180 270 arc closepath fill
	vpt 0 360 arc closepath} bind def
/C5 {BL [] 0 setdash 2 copy moveto
	2 copy vpt 0 90 arc
	2 copy moveto
	2 copy vpt 180 270 arc closepath fill
	vpt 0 360 arc} bind def
/C6 {BL [] 0 setdash 2 copy moveto
	2 copy vpt 90 270 arc closepath fill
	vpt 0 360 arc closepath} bind def
/C7 {BL [] 0 setdash 2 copy moveto
	2 copy vpt 0 270 arc closepath fill
	vpt 0 360 arc closepath} bind def
/C8 {BL [] 0 setdash 2 copy moveto
	2 copy vpt 270 360 arc closepath fill
	vpt 0 360 arc closepath} bind def
/C9 {BL [] 0 setdash 2 copy moveto
	2 copy vpt 270 450 arc closepath fill
	vpt 0 360 arc closepath} bind def
/C10 {BL [] 0 setdash 2 copy 2 copy moveto vpt 270 360 arc closepath fill
	2 copy moveto
	2 copy vpt 90 180 arc closepath fill
	vpt 0 360 arc closepath} bind def
/C11 {BL [] 0 setdash 2 copy moveto
	2 copy vpt 0 180 arc closepath fill
	2 copy moveto
	2 copy vpt 270 360 arc closepath fill
	vpt 0 360 arc closepath} bind def
/C12 {BL [] 0 setdash 2 copy moveto
	2 copy vpt 180 360 arc closepath fill
	vpt 0 360 arc closepath} bind def
/C13 {BL [] 0 setdash 2 copy moveto
	2 copy vpt 0 90 arc closepath fill
	2 copy moveto
	2 copy vpt 180 360 arc closepath fill
	vpt 0 360 arc closepath} bind def
/C14 {BL [] 0 setdash 2 copy moveto
	2 copy vpt 90 360 arc closepath fill
	vpt 0 360 arc} bind def
/C15 {BL [] 0 setdash 2 copy vpt 0 360 arc closepath fill
	vpt 0 360 arc closepath} bind def
/Rec {newpath 4 2 roll moveto 1 index 0 rlineto 0 exch rlineto
	neg 0 rlineto closepath} bind def
/Square {dup Rec} bind def
/Bsquare {vpt sub exch vpt sub exch vpt2 Square} bind def
/S0 {BL [] 0 setdash 2 copy moveto 0 vpt rlineto BL Bsquare} bind def
/S1 {BL [] 0 setdash 2 copy vpt Square fill Bsquare} bind def
/S2 {BL [] 0 setdash 2 copy exch vpt sub exch vpt Square fill Bsquare} bind def
/S3 {BL [] 0 setdash 2 copy exch vpt sub exch vpt2 vpt Rec fill Bsquare} bind def
/S4 {BL [] 0 setdash 2 copy exch vpt sub exch vpt sub vpt Square fill Bsquare} bind def
/S5 {BL [] 0 setdash 2 copy 2 copy vpt Square fill
	exch vpt sub exch vpt sub vpt Square fill Bsquare} bind def
/S6 {BL [] 0 setdash 2 copy exch vpt sub exch vpt sub vpt vpt2 Rec fill Bsquare} bind def
/S7 {BL [] 0 setdash 2 copy exch vpt sub exch vpt sub vpt vpt2 Rec fill
	2 copy vpt Square fill Bsquare} bind def
/S8 {BL [] 0 setdash 2 copy vpt sub vpt Square fill Bsquare} bind def
/S9 {BL [] 0 setdash 2 copy vpt sub vpt vpt2 Rec fill Bsquare} bind def
/S10 {BL [] 0 setdash 2 copy vpt sub vpt Square fill 2 copy exch vpt sub exch vpt Square fill
	Bsquare} bind def
/S11 {BL [] 0 setdash 2 copy vpt sub vpt Square fill 2 copy exch vpt sub exch vpt2 vpt Rec fill
	Bsquare} bind def
/S12 {BL [] 0 setdash 2 copy exch vpt sub exch vpt sub vpt2 vpt Rec fill Bsquare} bind def
/S13 {BL [] 0 setdash 2 copy exch vpt sub exch vpt sub vpt2 vpt Rec fill
	2 copy vpt Square fill Bsquare} bind def
/S14 {BL [] 0 setdash 2 copy exch vpt sub exch vpt sub vpt2 vpt Rec fill
	2 copy exch vpt sub exch vpt Square fill Bsquare} bind def
/S15 {BL [] 0 setdash 2 copy Bsquare fill Bsquare} bind def
/D0 {gsave translate 45 rotate 0 0 S0 stroke grestore} bind def
/D1 {gsave translate 45 rotate 0 0 S1 stroke grestore} bind def
/D2 {gsave translate 45 rotate 0 0 S2 stroke grestore} bind def
/D3 {gsave translate 45 rotate 0 0 S3 stroke grestore} bind def
/D4 {gsave translate 45 rotate 0 0 S4 stroke grestore} bind def
/D5 {gsave translate 45 rotate 0 0 S5 stroke grestore} bind def
/D6 {gsave translate 45 rotate 0 0 S6 stroke grestore} bind def
/D7 {gsave translate 45 rotate 0 0 S7 stroke grestore} bind def
/D8 {gsave translate 45 rotate 0 0 S8 stroke grestore} bind def
/D9 {gsave translate 45 rotate 0 0 S9 stroke grestore} bind def
/D10 {gsave translate 45 rotate 0 0 S10 stroke grestore} bind def
/D11 {gsave translate 45 rotate 0 0 S11 stroke grestore} bind def
/D12 {gsave translate 45 rotate 0 0 S12 stroke grestore} bind def
/D13 {gsave translate 45 rotate 0 0 S13 stroke grestore} bind def
/D14 {gsave translate 45 rotate 0 0 S14 stroke grestore} bind def
/D15 {gsave translate 45 rotate 0 0 S15 stroke grestore} bind def
/DiaE {stroke [] 0 setdash vpt add M
  hpt neg vpt neg V hpt vpt neg V
  hpt vpt V hpt neg vpt V closepath stroke} def
/BoxE {stroke [] 0 setdash exch hpt sub exch vpt add M
  0 vpt2 neg V hpt2 0 V 0 vpt2 V
  hpt2 neg 0 V closepath stroke} def
/TriUE {stroke [] 0 setdash vpt 1.12 mul add M
  hpt neg vpt -1.62 mul V
  hpt 2 mul 0 V
  hpt neg vpt 1.62 mul V closepath stroke} def
/TriDE {stroke [] 0 setdash vpt 1.12 mul sub M
  hpt neg vpt 1.62 mul V
  hpt 2 mul 0 V
  hpt neg vpt -1.62 mul V closepath stroke} def
/PentE {stroke [] 0 setdash gsave
  translate 0 hpt M 4 {72 rotate 0 hpt L} repeat
  closepath stroke grestore} def
/CircE {stroke [] 0 setdash 
  hpt 0 360 arc stroke} def
/Opaque {gsave closepath 1 setgray fill grestore 0 setgray closepath} def
/DiaW {stroke [] 0 setdash vpt add M
  hpt neg vpt neg V hpt vpt neg V
  hpt vpt V hpt neg vpt V Opaque stroke} def
/BoxW {stroke [] 0 setdash exch hpt sub exch vpt add M
  0 vpt2 neg V hpt2 0 V 0 vpt2 V
  hpt2 neg 0 V Opaque stroke} def
/TriUW {stroke [] 0 setdash vpt 1.12 mul add M
  hpt neg vpt -1.62 mul V
  hpt 2 mul 0 V
  hpt neg vpt 1.62 mul V Opaque stroke} def
/TriDW {stroke [] 0 setdash vpt 1.12 mul sub M
  hpt neg vpt 1.62 mul V
  hpt 2 mul 0 V
  hpt neg vpt -1.62 mul V Opaque stroke} def
/PentW {stroke [] 0 setdash gsave
  translate 0 hpt M 4 {72 rotate 0 hpt L} repeat
  Opaque stroke grestore} def
/CircW {stroke [] 0 setdash 
  hpt 0 360 arc Opaque stroke} def
/BoxFill {gsave Rec 1 setgray fill grestore} def
/Density {
  /Fillden exch def
  currentrgbcolor
  /ColB exch def /ColG exch def /ColR exch def
  /ColR ColR Fillden mul Fillden sub 1 add def
  /ColG ColG Fillden mul Fillden sub 1 add def
  /ColB ColB Fillden mul Fillden sub 1 add def
  ColR ColG ColB setrgbcolor} def
/BoxColFill {gsave Rec PolyFill} def
/PolyFill {gsave Density fill grestore grestore} def
/h {rlineto rlineto rlineto gsave closepath fill grestore} bind def
%
% PostScript Level 1 Pattern Fill routine for rectangles
% Usage: x y w h s a XX PatternFill
%	x,y = lower left corner of box to be filled
%	w,h = width and height of box
%	  a = angle in degrees between lines and x-axis
%	 XX = 0/1 for no/yes cross-hatch
%
/PatternFill {gsave /PFa [ 9 2 roll ] def
  PFa 0 get PFa 2 get 2 div add PFa 1 get PFa 3 get 2 div add translate
  PFa 2 get -2 div PFa 3 get -2 div PFa 2 get PFa 3 get Rec
  TransparentPatterns {} {gsave 1 setgray fill grestore} ifelse
  clip
  currentlinewidth 0.5 mul setlinewidth
  /PFs PFa 2 get dup mul PFa 3 get dup mul add sqrt def
  0 0 M PFa 5 get rotate PFs -2 div dup translate
  0 1 PFs PFa 4 get div 1 add floor cvi
	{PFa 4 get mul 0 M 0 PFs V} for
  0 PFa 6 get ne {
	0 1 PFs PFa 4 get div 1 add floor cvi
	{PFa 4 get mul 0 2 1 roll M PFs 0 V} for
 } if
  stroke grestore} def
%
/languagelevel where
 {pop languagelevel} {1} ifelse
dup 2 lt
	{/InterpretLevel1 true def
	 /InterpretLevel3 false def}
	{/InterpretLevel1 Level1 def
	 2 gt
	    {/InterpretLevel3 Level3 def}
	    {/InterpretLevel3 false def}
	 ifelse }
 ifelse
%
% PostScript level 2 pattern fill definitions
%
/Level2PatternFill {
/Tile8x8 {/PaintType 2 /PatternType 1 /TilingType 1 /BBox [0 0 8 8] /XStep 8 /YStep 8}
	bind def
/KeepColor {currentrgbcolor [/Pattern /DeviceRGB] setcolorspace} bind def
<< Tile8x8
 /PaintProc {0.5 setlinewidth pop 0 0 M 8 8 L 0 8 M 8 0 L stroke} 
>> matrix makepattern
/Pat1 exch def
<< Tile8x8
 /PaintProc {0.5 setlinewidth pop 0 0 M 8 8 L 0 8 M 8 0 L stroke
	0 4 M 4 8 L 8 4 L 4 0 L 0 4 L stroke}
>> matrix makepattern
/Pat2 exch def
<< Tile8x8
 /PaintProc {0.5 setlinewidth pop 0 0 M 0 8 L
	8 8 L 8 0 L 0 0 L fill}
>> matrix makepattern
/Pat3 exch def
<< Tile8x8
 /PaintProc {0.5 setlinewidth pop -4 8 M 8 -4 L
	0 12 M 12 0 L stroke}
>> matrix makepattern
/Pat4 exch def
<< Tile8x8
 /PaintProc {0.5 setlinewidth pop -4 0 M 8 12 L
	0 -4 M 12 8 L stroke}
>> matrix makepattern
/Pat5 exch def
<< Tile8x8
 /PaintProc {0.5 setlinewidth pop -2 8 M 4 -4 L
	0 12 M 8 -4 L 4 12 M 10 0 L stroke}
>> matrix makepattern
/Pat6 exch def
<< Tile8x8
 /PaintProc {0.5 setlinewidth pop -2 0 M 4 12 L
	0 -4 M 8 12 L 4 -4 M 10 8 L stroke}
>> matrix makepattern
/Pat7 exch def
<< Tile8x8
 /PaintProc {0.5 setlinewidth pop 8 -2 M -4 4 L
	12 0 M -4 8 L 12 4 M 0 10 L stroke}
>> matrix makepattern
/Pat8 exch def
<< Tile8x8
 /PaintProc {0.5 setlinewidth pop 0 -2 M 12 4 L
	-4 0 M 12 8 L -4 4 M 8 10 L stroke}
>> matrix makepattern
/Pat9 exch def
/Pattern1 {PatternBgnd KeepColor Pat1 setpattern} bind def
/Pattern2 {PatternBgnd KeepColor Pat2 setpattern} bind def
/Pattern3 {PatternBgnd KeepColor Pat3 setpattern} bind def
/Pattern4 {PatternBgnd KeepColor Landscape {Pat5} {Pat4} ifelse setpattern} bind def
/Pattern5 {PatternBgnd KeepColor Landscape {Pat4} {Pat5} ifelse setpattern} bind def
/Pattern6 {PatternBgnd KeepColor Landscape {Pat9} {Pat6} ifelse setpattern} bind def
/Pattern7 {PatternBgnd KeepColor Landscape {Pat8} {Pat7} ifelse setpattern} bind def
} def
%
%
%End of PostScript Level 2 code
%
/PatternBgnd {
  TransparentPatterns {} {gsave 1 setgray fill grestore} ifelse
} def
%
% Substitute for Level 2 pattern fill codes with
% grayscale if Level 2 support is not selected.
%
/Level1PatternFill {
/Pattern1 {0.250 Density} bind def
/Pattern2 {0.500 Density} bind def
/Pattern3 {0.750 Density} bind def
/Pattern4 {0.125 Density} bind def
/Pattern5 {0.375 Density} bind def
/Pattern6 {0.625 Density} bind def
/Pattern7 {0.875 Density} bind def
} def
%
% Now test for support of Level 2 code
%
Level1 {Level1PatternFill} {Level2PatternFill} ifelse
%
/Symbol-Oblique /Symbol findfont [1 0 .167 1 0 0] makefont
dup length dict begin {1 index /FID eq {pop pop} {def} ifelse} forall
currentdict end definefont pop
%
/MFshow {
   { dup 5 get 3 ge
     { 5 get 3 eq {gsave} {grestore} ifelse }
     {dup dup 0 get findfont exch 1 get scalefont setfont
     [ currentpoint ] exch dup 2 get 0 exch R dup 5 get 2 ne {dup dup 6
     get exch 4 get {textshow} {stringwidth pop 0 R} ifelse }if dup 5 get 0 eq
     {dup 3 get {2 get neg 0 exch R pop} {pop aload pop M} ifelse} {dup 5
     get 1 eq {dup 2 get exch dup 3 get exch 6 get stringwidth pop -2 div
     dup 0 R} {dup 6 get stringwidth pop -2 div 0 R 6 get
     textshow 2 index {aload pop M neg 3 -1 roll neg R pop pop} {pop pop pop
     pop aload pop M} ifelse }ifelse }ifelse }
     ifelse }
   forall} def
/Gswidth {dup type /stringtype eq {stringwidth} {pop (n) stringwidth} ifelse} def
/MFwidth {0 exch { dup 5 get 3 ge { 5 get 3 eq { 0 } { pop } ifelse }
 {dup 3 get{dup dup 0 get findfont exch 1 get scalefont setfont
     6 get Gswidth pop add} {pop} ifelse} ifelse} forall} def
/MLshow { currentpoint stroke M
  0 exch R
  Blacktext {gsave 0 setgray MFshow grestore} {MFshow} ifelse } bind def
/MRshow { currentpoint stroke M
  exch dup MFwidth neg 3 -1 roll R
  Blacktext {gsave 0 setgray MFshow grestore} {MFshow} ifelse } bind def
/MCshow { currentpoint stroke M
  exch dup MFwidth -2 div 3 -1 roll R
  Blacktext {gsave 0 setgray MFshow grestore} {MFshow} ifelse } bind def
/XYsave    { [( ) 1 2 true false 3 ()] } bind def
/XYrestore { [( ) 1 2 true false 4 ()] } bind def
Level1 SuppressPDFMark or 
{} {
/SDict 10 dict def
systemdict /pdfmark known not {
  userdict /pdfmark systemdict /cleartomark get put
} if
SDict begin [
  /Title (sod.eps)
  /Subject (gnuplot plot)
  /Creator (gnuplot 5.0 patchlevel 1)
  /Author (praveen)
%  /Producer (gnuplot)
%  /Keywords ()
  /CreationDate (Wed Sep 30 20:53:48 2015)
  /DOCINFO pdfmark
end
} ifelse
end
%
% Support for boxed text - Ethan A Merritt May 2005
%
/InitTextBox { userdict /TBy2 3 -1 roll put userdict /TBx2 3 -1 roll put
           userdict /TBy1 3 -1 roll put userdict /TBx1 3 -1 roll put
	   /Boxing true def } def
/ExtendTextBox { Boxing
    { gsave dup false charpath pathbbox
      dup TBy2 gt {userdict /TBy2 3 -1 roll put} {pop} ifelse
      dup TBx2 gt {userdict /TBx2 3 -1 roll put} {pop} ifelse
      dup TBy1 lt {userdict /TBy1 3 -1 roll put} {pop} ifelse
      dup TBx1 lt {userdict /TBx1 3 -1 roll put} {pop} ifelse
      grestore } if } def
/PopTextBox { newpath TBx1 TBxmargin sub TBy1 TBymargin sub M
               TBx1 TBxmargin sub TBy2 TBymargin add L
	       TBx2 TBxmargin add TBy2 TBymargin add L
	       TBx2 TBxmargin add TBy1 TBymargin sub L closepath } def
/DrawTextBox { PopTextBox stroke /Boxing false def} def
/FillTextBox { gsave PopTextBox 1 1 1 setrgbcolor fill grestore /Boxing false def} def
0 0 0 0 InitTextBox
/TBxmargin 20 def
/TBymargin 20 def
/Boxing false def
/textshow { ExtendTextBox Gshow } def
%
%%EndProlog
%%Page: 1 1
gnudict begin
gsave
doclip
50 50 translate
0.100 0.100 scale
90 rotate
0 -5040 translate
0 setgray
newpath
(Helvetica) findfont 140 scalefont setfont
BackgroundColor 0 lt 3 1 roll 0 lt exch 0 lt or or not {gsave BackgroundColor C clippath fill grestore} if
1.000 UL
LTb
LCb setrgbcolor
686 448 M
63 0 V
6198 0 R
-63 0 V
stroke
602 448 M
[ [(Helvetica) 200.0 0.0 true true 0 ( 0.1)]
] -66.7 MRshow
1.000 UL
LTb
LCb setrgbcolor
686 890 M
63 0 V
6198 0 R
-63 0 V
stroke
602 890 M
[ [(Helvetica) 200.0 0.0 true true 0 ( 0.2)]
] -66.7 MRshow
1.000 UL
LTb
LCb setrgbcolor
686 1333 M
63 0 V
6198 0 R
-63 0 V
stroke
602 1333 M
[ [(Helvetica) 200.0 0.0 true true 0 ( 0.3)]
] -66.7 MRshow
1.000 UL
LTb
LCb setrgbcolor
686 1775 M
63 0 V
6198 0 R
-63 0 V
stroke
602 1775 M
[ [(Helvetica) 200.0 0.0 true true 0 ( 0.4)]
] -66.7 MRshow
1.000 UL
LTb
LCb setrgbcolor
686 2217 M
63 0 V
6198 0 R
-63 0 V
stroke
602 2217 M
[ [(Helvetica) 200.0 0.0 true true 0 ( 0.5)]
] -66.7 MRshow
1.000 UL
LTb
LCb setrgbcolor
686 2660 M
63 0 V
6198 0 R
-63 0 V
stroke
602 2660 M
[ [(Helvetica) 200.0 0.0 true true 0 ( 0.6)]
] -66.7 MRshow
1.000 UL
LTb
LCb setrgbcolor
686 3102 M
63 0 V
6198 0 R
-63 0 V
stroke
602 3102 M
[ [(Helvetica) 200.0 0.0 true true 0 ( 0.7)]
] -66.7 MRshow
1.000 UL
LTb
LCb setrgbcolor
686 3544 M
63 0 V
6198 0 R
-63 0 V
stroke
602 3544 M
[ [(Helvetica) 200.0 0.0 true true 0 ( 0.8)]
] -66.7 MRshow
1.000 UL
LTb
LCb setrgbcolor
686 3986 M
63 0 V
6198 0 R
-63 0 V
stroke
602 3986 M
[ [(Helvetica) 200.0 0.0 true true 0 ( 0.9)]
] -66.7 MRshow
1.000 UL
LTb
LCb setrgbcolor
686 4429 M
63 0 V
6198 0 R
-63 0 V
stroke
602 4429 M
[ [(Helvetica) 200.0 0.0 true true 0 ( 1)]
] -66.7 MRshow
1.000 UL
LTb
LCb setrgbcolor
686 4871 M
63 0 V
6198 0 R
-63 0 V
stroke
602 4871 M
[ [(Helvetica) 200.0 0.0 true true 0 ( 1.1)]
] -66.7 MRshow
1.000 UL
LTb
LCb setrgbcolor
686 448 M
0 63 V
0 4360 R
0 -63 V
stroke
686 308 M
[ [(Helvetica) 200.0 0.0 true true 0 ( 0)]
] -66.7 MCshow
1.000 UL
LTb
LCb setrgbcolor
1938 448 M
0 63 V
0 4360 R
0 -63 V
stroke
1938 308 M
[ [(Helvetica) 200.0 0.0 true true 0 ( 0.2)]
] -66.7 MCshow
1.000 UL
LTb
LCb setrgbcolor
3190 448 M
0 63 V
0 4360 R
0 -63 V
stroke
3190 308 M
[ [(Helvetica) 200.0 0.0 true true 0 ( 0.4)]
] -66.7 MCshow
1.000 UL
LTb
LCb setrgbcolor
4443 448 M
0 63 V
0 4360 R
0 -63 V
stroke
4443 308 M
[ [(Helvetica) 200.0 0.0 true true 0 ( 0.6)]
] -66.7 MCshow
1.000 UL
LTb
LCb setrgbcolor
5695 448 M
0 63 V
0 4360 R
0 -63 V
stroke
5695 308 M
[ [(Helvetica) 200.0 0.0 true true 0 ( 0.8)]
] -66.7 MCshow
1.000 UL
LTb
LCb setrgbcolor
6947 448 M
0 63 V
0 4360 R
0 -63 V
stroke
6947 308 M
[ [(Helvetica) 200.0 0.0 true true 0 ( 1)]
] -66.7 MCshow
1.000 UL
LTb
LCb setrgbcolor
1.000 UL
LTb
LCb setrgbcolor
686 4871 N
686 448 L
6261 0 V
0 4423 V
-6261 0 V
Z stroke
1.000 UP
1.000 UL
LTb
LCb setrgbcolor
LCb setrgbcolor
112 2659 M
currentpoint gsave translate -270 rotate 0 0 moveto
[ [(Helvetica) 240.0 0.0 true true 0 (Density)]
] -80.0 MCshow
grestore
LTb
LCb setrgbcolor
3816 98 M
[ [(Helvetica) 240.0 0.0 true true 0 (x)]
] -80.0 MCshow
LTb
% Begin plot #1
2.000 UL
LTb
LCb setrgbcolor
LCb setrgbcolor
5936 4628 M
[ [(Helvetica) 240.0 0.0 true true 0 (DG pol)]
] -80.0 MRshow
2.000 UL
LTb
LCb setrgbcolor
6080 4628 M
639 0 V
686 4429 M
63 0 V
62 0 V
63 0 V
62 0 V
63 0 V
63 0 V
62 0 V
63 0 V
62 0 V
63 0 V
63 0 V
62 0 V
63 0 V
63 0 V
62 0 V
63 0 V
62 0 V
63 0 V
63 0 V
62 0 V
63 0 V
62 0 V
63 0 V
63 0 V
62 -3 V
63 -55 V
0 -9 R
62 -106 V
0 -3 R
63 -124 V
63 -129 V
62 -130 V
63 -129 V
0 1 R
63 -128 V
0 1 R
62 -126 V
0 1 R
63 -124 V
0 1 R
62 -120 V
0 1 R
63 -118 V
0 1 R
63 -115 V
0 1 R
62 -112 V
0 1 R
63 -109 V
0 1 R
62 -106 V
0 1 R
63 -103 V
0 1 R
63 -100 V
0 1 R
62 -96 V
0 1 R
63 -94 V
0 2 R
62 -90 V
0 1 R
63 -86 V
0 1 R
63 -81 V
0 2 R
62 -75 V
0 3 R
63 -61 V
0 4 R
63 -29 V
0 3 R
62 -6 V
63 0 V
62 0 V
63 0 V
63 0 V
62 0 V
63 0 V
62 -1 V
63 0 V
63 0 V
62 -1 V
63 -1 V
62 -1 V
63 -3 V
0 1 R
63 -5 V
0 3 R
62 -15 V
0 7 R
63 -53 V
0 18 R
62 -173 V
0 2 R
63 -284 V
0 -39 R
63 -160 V
0 1 R
62 -7 V
0 1 R
63 -1 V
stroke 5194 1180 M
63 0 V
62 0 V
63 0 V
0 1 R
62 0 V
63 0 V
0 -1 R
63 0 V
62 0 V
0 1 R
63 0 V
62 -1 V
63 0 V
63 -1 V
0 1 R
62 -11 V
0 6 R
63 -127 V
0 -175 R
62 -312 V
0 2 R
63 -4 V
63 0 V
62 0 V
63 0 V
63 0 V
62 0 V
63 0 V
62 0 V
63 0 V
63 0 V
62 0 V
63 0 V
62 0 V
63 0 V
% End plot #1
% Begin plot #2
1.000 UP
stroke
1.000 UL
LTb
LT1
LCb setrgbcolor
LCb setrgbcolor
5936 4268 M
[ [(Helvetica) 240.0 0.0 true true 0 (DG avg)]
] -80.0 MRshow
1.000 UP
1.000 UL
LTb
LT1
LCb setrgbcolor
717 4429 Circle
780 4429 Circle
843 4429 Circle
905 4429 Circle
968 4429 Circle
1030 4429 Circle
1093 4429 Circle
1156 4429 Circle
1218 4429 Circle
1281 4429 Circle
1343 4429 Circle
1406 4429 Circle
1469 4429 Circle
1531 4429 Circle
1594 4429 Circle
1656 4429 Circle
1719 4429 Circle
1782 4429 Circle
1844 4429 Circle
1907 4429 Circle
1970 4429 Circle
2032 4429 Circle
2095 4429 Circle
2157 4429 Circle
2220 4427 Circle
2283 4398 Circle
2345 4309 Circle
2408 4191 Circle
2470 4064 Circle
2533 3935 Circle
2596 3806 Circle
2658 3678 Circle
2721 3552 Circle
2783 3428 Circle
2846 3307 Circle
2909 3189 Circle
2971 3073 Circle
3034 2961 Circle
3096 2851 Circle
3159 2745 Circle
3222 2641 Circle
3284 2541 Circle
3347 2444 Circle
3410 2350 Circle
3472 2260 Circle
3535 2173 Circle
3597 2091 Circle
3660 2015 Circle
3723 1949 Circle
3785 1908 Circle
3848 1894 Circle
3910 1891 Circle
3973 1891 Circle
4036 1891 Circle
4098 1891 Circle
4161 1891 Circle
4223 1891 Circle
4286 1890 Circle
4349 1890 Circle
4411 1890 Circle
4474 1889 Circle
4537 1889 Circle
4599 1888 Circle
4662 1886 Circle
4724 1883 Circle
4787 1875 Circle
4850 1848 Circle
4912 1754 Circle
4975 1527 Circle
5037 1266 Circle
5100 1184 Circle
5163 1180 Circle
5225 1180 Circle
5288 1180 Circle
5350 1180 Circle
5413 1181 Circle
5476 1181 Circle
5538 1180 Circle
5601 1180 Circle
5663 1181 Circle
5726 1180 Circle
5789 1180 Circle
5851 1180 Circle
5914 1175 Circle
5977 1112 Circle
6039 717 Circle
6102 561 Circle
6164 559 Circle
6227 559 Circle
6290 559 Circle
6352 559 Circle
6415 559 Circle
6477 559 Circle
6540 559 Circle
6603 559 Circle
6665 559 Circle
6728 559 Circle
6790 559 Circle
6853 559 Circle
6916 559 Circle
6399 4268 Circle
% End plot #2
% Begin plot #3
2.000 UL
LTb
LT2
LCb setrgbcolor
LCb setrgbcolor
5936 3908 M
[ [(Helvetica) 240.0 0.0 true true 0 (Exact)]
] -80.0 MRshow
2.000 UL
LTb
LT2
LCb setrgbcolor
6080 3908 M
639 0 V
689 4429 M
6 0 V
7 0 V
6 0 V
6 0 V
6 0 V
7 0 V
6 0 V
6 0 V
6 0 V
7 0 V
6 0 V
6 0 V
7 0 V
6 0 V
6 0 V
6 0 V
7 0 V
6 0 V
6 0 V
6 0 V
7 0 V
6 0 V
6 0 V
6 0 V
7 0 V
6 0 V
6 0 V
6 0 V
7 0 V
6 0 V
6 0 V
6 0 V
7 0 V
6 0 V
6 0 V
7 0 V
6 0 V
6 0 V
6 0 V
7 0 V
6 0 V
6 0 V
6 0 V
7 0 V
6 0 V
6 0 V
6 0 V
7 0 V
6 0 V
6 0 V
6 0 V
7 0 V
6 0 V
6 0 V
6 0 V
7 0 V
6 0 V
6 0 V
7 0 V
6 0 V
6 0 V
6 0 V
7 0 V
6 0 V
6 0 V
6 0 V
7 0 V
6 0 V
6 0 V
6 0 V
7 0 V
6 0 V
6 0 V
6 0 V
7 0 V
6 0 V
6 0 V
6 0 V
7 0 V
6 0 V
6 0 V
7 0 V
6 0 V
6 0 V
6 0 V
7 0 V
6 0 V
6 0 V
6 0 V
7 0 V
6 0 V
6 0 V
6 0 V
7 0 V
6 0 V
6 0 V
6 0 V
7 0 V
6 0 V
6 0 V
6 0 V
7 0 V
stroke 1328 4429 M
6 0 V
6 0 V
7 0 V
6 0 V
6 0 V
6 0 V
7 0 V
6 0 V
6 0 V
6 0 V
7 0 V
6 0 V
6 0 V
6 0 V
7 0 V
6 0 V
6 0 V
6 0 V
7 0 V
6 0 V
6 0 V
6 0 V
7 0 V
6 0 V
6 0 V
7 0 V
6 0 V
6 0 V
6 0 V
7 0 V
6 0 V
6 0 V
6 0 V
7 0 V
6 0 V
6 0 V
6 0 V
7 0 V
6 0 V
6 0 V
6 0 V
7 0 V
6 0 V
6 0 V
6 0 V
7 0 V
6 0 V
6 0 V
7 0 V
6 0 V
6 0 V
6 0 V
7 0 V
6 0 V
6 0 V
6 0 V
7 0 V
6 0 V
6 0 V
6 0 V
7 0 V
6 0 V
6 0 V
6 0 V
7 0 V
6 0 V
6 0 V
7 0 V
6 0 V
6 0 V
6 0 V
7 0 V
6 0 V
6 0 V
6 0 V
7 0 V
6 0 V
6 0 V
6 0 V
7 0 V
6 0 V
6 0 V
6 0 V
7 0 V
6 0 V
6 0 V
6 0 V
7 0 V
6 0 V
6 0 V
7 0 V
6 0 V
6 0 V
6 0 V
7 0 V
6 0 V
6 0 V
6 0 V
7 0 V
6 0 V
6 0 V
6 0 V
7 0 V
6 0 V
stroke 1979 4429 M
6 0 V
6 0 V
7 0 V
6 0 V
6 0 V
6 0 V
7 0 V
6 0 V
6 0 V
7 0 V
6 0 V
6 0 V
6 0 V
7 0 V
6 0 V
6 0 V
6 0 V
7 0 V
6 0 V
6 0 V
6 0 V
7 0 V
6 0 V
6 0 V
6 0 V
7 0 V
6 0 V
6 0 V
6 0 V
7 0 V
6 0 V
6 0 V
7 0 V
6 0 V
6 0 V
6 0 V
7 0 V
6 0 V
6 0 V
6 0 V
7 0 V
6 0 V
6 0 V
6 0 V
7 0 V
6 0 V
6 0 V
6 0 V
7 0 V
6 0 V
6 0 V
6 0 V
7 0 V
6 0 V
6 0 V
7 0 V
6 -3 V
6 -15 V
6 -16 V
7 -15 V
6 -15 V
6 -16 V
6 -15 V
7 -15 V
6 -16 V
6 -15 V
6 -15 V
7 -15 V
6 -15 V
6 -15 V
6 -15 V
7 -15 V
6 -15 V
6 -15 V
6 -15 V
7 -15 V
6 -14 V
6 -15 V
7 -15 V
6 -14 V
6 -15 V
6 -14 V
7 -15 V
6 -14 V
6 -15 V
6 -14 V
7 -14 V
6 -15 V
6 -14 V
6 -14 V
7 -14 V
6 -14 V
6 -14 V
6 -14 V
7 -14 V
6 -14 V
6 -14 V
6 -14 V
7 -14 V
6 -14 V
6 -13 V
7 -14 V
6 -14 V
6 -13 V
stroke 2630 3742 M
6 -14 V
7 -14 V
6 -13 V
6 -14 V
6 -13 V
7 -13 V
6 -14 V
6 -13 V
6 -13 V
7 -14 V
6 -13 V
6 -13 V
6 -13 V
7 -13 V
6 -13 V
6 -13 V
6 -13 V
7 -13 V
6 -13 V
6 -13 V
7 -13 V
6 -12 V
6 -13 V
6 -13 V
7 -12 V
6 -13 V
6 -13 V
6 -12 V
7 -13 V
6 -12 V
6 -13 V
6 -12 V
7 -12 V
6 -13 V
6 -12 V
6 -12 V
7 -12 V
6 -13 V
6 -12 V
6 -12 V
7 -12 V
6 -12 V
6 -12 V
7 -12 V
6 -12 V
6 -12 V
6 -12 V
7 -11 V
6 -12 V
6 -12 V
6 -12 V
7 -11 V
6 -12 V
6 -12 V
6 -11 V
7 -12 V
6 -11 V
6 -12 V
6 -11 V
7 -12 V
6 -11 V
6 -11 V
6 -12 V
7 -11 V
6 -11 V
6 -11 V
7 -11 V
6 -11 V
6 -12 V
6 -11 V
7 -11 V
6 -11 V
6 -11 V
6 -11 V
7 -10 V
6 -11 V
6 -11 V
6 -11 V
7 -11 V
6 -10 V
6 -11 V
6 -11 V
7 -10 V
6 -11 V
6 -10 V
6 -11 V
7 -10 V
6 -11 V
6 -10 V
7 -11 V
6 -10 V
6 -10 V
6 -11 V
7 -10 V
6 -10 V
6 -10 V
6 -11 V
7 -10 V
6 -10 V
6 -10 V
6 -10 V
7 -10 V
6 -10 V
6 -10 V
stroke 3281 2525 M
6 -10 V
7 -10 V
6 -9 V
6 -10 V
6 -10 V
7 -10 V
6 -10 V
6 -9 V
7 -10 V
6 -10 V
6 -9 V
6 -10 V
7 -9 V
6 -10 V
6 -9 V
6 -10 V
7 -9 V
6 -10 V
6 -9 V
6 -9 V
7 -10 V
6 -9 V
6 -9 V
6 -9 V
7 -9 V
6 -10 V
6 -9 V
6 -9 V
7 -9 V
6 -9 V
6 -9 V
7 -9 V
6 -9 V
6 -9 V
6 -9 V
7 -9 V
6 -8 V
6 -9 V
6 -9 V
7 -9 V
6 -8 V
6 -9 V
6 -9 V
7 -8 V
6 -9 V
6 -9 V
6 -8 V
7 -9 V
6 -8 V
6 -9 V
6 -8 V
7 -9 V
6 -8 V
6 -8 V
7 -9 V
6 -8 V
6 -8 V
6 -8 V
7 -9 V
6 -8 V
6 -8 V
6 -8 V
7 -8 V
6 -8 V
6 -8 V
6 -8 V
7 -8 V
6 -8 V
6 -8 V
6 -8 V
7 -8 V
6 -4 V
6 0 V
6 0 V
7 0 V
6 0 V
6 0 V
7 0 V
6 0 V
6 0 V
6 0 V
7 0 V
6 0 V
6 0 V
6 0 V
7 0 V
6 0 V
6 0 V
6 0 V
7 0 V
6 0 V
6 0 V
6 0 V
7 0 V
6 0 V
6 0 V
7 0 V
6 0 V
6 0 V
6 0 V
7 0 V
6 0 V
6 0 V
6 0 V
stroke 3932 1891 M
7 0 V
6 0 V
6 0 V
6 0 V
7 0 V
6 0 V
6 0 V
6 0 V
7 0 V
6 0 V
6 0 V
6 0 V
7 0 V
6 0 V
6 0 V
7 0 V
6 0 V
6 0 V
6 0 V
7 0 V
6 0 V
6 0 V
6 0 V
7 0 V
6 0 V
6 0 V
6 0 V
7 0 V
6 0 V
6 0 V
6 0 V
7 0 V
6 0 V
6 0 V
6 0 V
7 0 V
6 0 V
6 0 V
7 0 V
6 0 V
6 0 V
6 0 V
7 0 V
6 0 V
6 0 V
6 0 V
7 0 V
6 0 V
6 0 V
6 0 V
7 0 V
6 0 V
6 0 V
6 0 V
7 0 V
6 0 V
6 0 V
6 0 V
7 0 V
6 0 V
6 0 V
7 0 V
6 0 V
6 0 V
6 0 V
7 0 V
6 0 V
6 0 V
6 0 V
7 0 V
6 0 V
6 0 V
6 0 V
7 0 V
6 0 V
6 0 V
6 0 V
7 0 V
6 0 V
6 0 V
6 0 V
7 0 V
6 0 V
6 0 V
7 0 V
6 0 V
6 0 V
6 0 V
7 0 V
6 0 V
6 0 V
6 0 V
7 0 V
6 0 V
6 0 V
6 0 V
7 0 V
6 0 V
6 0 V
6 0 V
7 0 V
6 0 V
6 0 V
6 0 V
stroke 4583 1891 M
7 0 V
6 0 V
6 0 V
7 0 V
6 0 V
6 0 V
6 0 V
7 0 V
6 0 V
6 0 V
6 0 V
7 0 V
6 0 V
6 0 V
6 0 V
7 0 V
6 0 V
6 0 V
6 0 V
7 0 V
6 0 V
6 0 V
6 0 V
7 0 V
6 0 V
6 0 V
7 0 V
6 0 V
6 0 V
6 0 V
7 0 V
6 0 V
6 0 V
6 0 V
7 0 V
6 0 V
6 0 V
6 0 V
7 0 V
6 0 V
6 0 V
6 0 V
7 0 V
6 0 V
6 0 V
6 0 V
7 0 V
6 0 V
6 0 V
7 0 V
6 0 V
6 0 V
6 0 V
7 0 V
6 0 V
6 0 V
6 0 V
7 0 V
6 0 V
6 0 V
6 0 V
7 0 V
6 -711 V
6 0 V
6 0 V
7 0 V
6 0 V
6 0 V
6 0 V
7 0 V
6 0 V
6 0 V
7 0 V
6 0 V
6 0 V
6 0 V
7 0 V
6 0 V
6 0 V
6 0 V
7 0 V
6 0 V
6 0 V
6 0 V
7 0 V
6 0 V
6 0 V
6 0 V
7 0 V
6 0 V
6 0 V
6 0 V
7 0 V
6 0 V
6 0 V
7 0 V
6 0 V
6 0 V
6 0 V
7 0 V
6 0 V
6 0 V
6 0 V
7 0 V
stroke 5235 1180 M
6 0 V
6 0 V
6 0 V
7 0 V
6 0 V
6 0 V
6 0 V
7 0 V
6 0 V
6 0 V
6 0 V
7 0 V
6 0 V
6 0 V
7 0 V
6 0 V
6 0 V
6 0 V
7 0 V
6 0 V
6 0 V
6 0 V
7 0 V
6 0 V
6 0 V
6 0 V
7 0 V
6 0 V
6 0 V
6 0 V
7 0 V
6 0 V
6 0 V
6 0 V
7 0 V
6 0 V
6 0 V
7 0 V
6 0 V
6 0 V
6 0 V
7 0 V
6 0 V
6 0 V
6 0 V
7 0 V
6 0 V
6 0 V
6 0 V
7 0 V
6 0 V
6 0 V
6 0 V
7 0 V
6 0 V
6 0 V
6 0 V
7 0 V
6 0 V
6 0 V
7 0 V
6 0 V
6 0 V
6 0 V
7 0 V
6 0 V
6 0 V
6 0 V
7 0 V
6 0 V
6 0 V
6 0 V
7 0 V
6 0 V
6 0 V
6 0 V
7 0 V
6 0 V
6 0 V
6 0 V
7 0 V
6 0 V
6 0 V
7 0 V
6 0 V
6 0 V
6 0 V
7 0 V
6 0 V
6 0 V
6 0 V
7 0 V
6 0 V
6 0 V
6 0 V
7 0 V
6 0 V
6 0 V
6 0 V
7 0 V
6 0 V
6 0 V
6 0 V
7 0 V
stroke 5886 1180 M
6 0 V
6 0 V
7 0 V
6 0 V
6 0 V
6 0 V
7 0 V
6 0 V
6 0 V
6 0 V
7 0 V
6 0 V
6 0 V
6 0 V
7 0 V
6 0 V
6 0 V
6 0 V
7 0 V
6 -621 V
6 0 V
7 0 V
6 0 V
6 0 V
6 0 V
7 0 V
6 0 V
6 0 V
6 0 V
7 0 V
6 0 V
6 0 V
6 0 V
7 0 V
6 0 V
6 0 V
6 0 V
7 0 V
6 0 V
6 0 V
6 0 V
7 0 V
6 0 V
6 0 V
7 0 V
6 0 V
6 0 V
6 0 V
7 0 V
6 0 V
6 0 V
6 0 V
7 0 V
6 0 V
6 0 V
6 0 V
7 0 V
6 0 V
6 0 V
6 0 V
7 0 V
6 0 V
6 0 V
6 0 V
7 0 V
6 0 V
6 0 V
7 0 V
6 0 V
6 0 V
6 0 V
7 0 V
6 0 V
6 0 V
6 0 V
7 0 V
6 0 V
6 0 V
6 0 V
7 0 V
6 0 V
6 0 V
6 0 V
7 0 V
6 0 V
6 0 V
6 0 V
7 0 V
6 0 V
6 0 V
7 0 V
6 0 V
6 0 V
6 0 V
7 0 V
6 0 V
6 0 V
6 0 V
7 0 V
6 0 V
6 0 V
6 0 V
7 0 V
6 0 V
stroke 6537 559 M
6 0 V
6 0 V
7 0 V
6 0 V
6 0 V
6 0 V
7 0 V
6 0 V
6 0 V
7 0 V
6 0 V
6 0 V
6 0 V
7 0 V
6 0 V
6 0 V
6 0 V
7 0 V
6 0 V
6 0 V
6 0 V
7 0 V
6 0 V
6 0 V
6 0 V
7 0 V
6 0 V
6 0 V
6 0 V
7 0 V
6 0 V
6 0 V
7 0 V
6 0 V
6 0 V
6 0 V
7 0 V
6 0 V
6 0 V
6 0 V
7 0 V
6 0 V
6 0 V
6 0 V
7 0 V
6 0 V
6 0 V
6 0 V
7 0 V
6 0 V
6 0 V
6 0 V
7 0 V
6 0 V
6 0 V
7 0 V
6 0 V
6 0 V
6 0 V
7 0 V
6 0 V
6 0 V
6 0 V
7 0 V
6 0 V
% End plot #3
stroke
LTb
LCb setrgbcolor
1.000 UL
LTb
LCb setrgbcolor
686 4871 N
686 448 L
6261 0 V
0 4423 V
-6261 0 V
Z stroke
1.000 UP
1.000 UL
LTb
LCb setrgbcolor
stroke
grestore
end
showpage
%%Trailer
%%DocumentFonts: Helvetica
%%Pages: 1
