%!PS-Adobe-2.0
%%Title: plot.ps
%%Creator: gnuplot 4.6 patchlevel 4
%%CreationDate: Sun May 15 17:31:12 2016
%%DocumentFonts: (atend)
%%BoundingBox: 50 50 554 770
%%Orientation: Landscape
%%Pages: (atend)
%%EndComments
%%BeginProlog
/gnudict 256 dict def
gnudict begin
%
% The following true/false flags may be edited by hand if desired.
% The unit line width and grayscale image gamma correction may also be changed.
%
/Color true def
/Blacktext false def
/Solid false def
/Dashlength 1 def
/Landscape true def
/Level1 false def
/Rounded false def
/ClipToBoundingBox false def
/SuppressPDFMark false def
/TransparentPatterns false def
/gnulinewidth 5.000 def
/userlinewidth gnulinewidth def
/Gamma 1.0 def
/BackgroundColor {-1.000 -1.000 -1.000} def
%
/vshift -46 def
/dl1 {
  10.0 Dashlength mul mul
  Rounded { currentlinewidth 0.75 mul sub dup 0 le { pop 0.01 } if } if
} def
/dl2 {
  10.0 Dashlength mul mul
  Rounded { currentlinewidth 0.75 mul add } if
} def
/hpt_ 31.5 def
/vpt_ 31.5 def
/hpt hpt_ def
/vpt vpt_ def
/doclip {
  ClipToBoundingBox {
    newpath 50 50 moveto 554 50 lineto 554 770 lineto 50 770 lineto closepath
    clip
  } if
} def
%
% Gnuplot Prolog Version 4.6 (September 2012)
%
%/SuppressPDFMark true def
%
/M {moveto} bind def
/L {lineto} bind def
/R {rmoveto} bind def
/V {rlineto} bind def
/N {newpath moveto} bind def
/Z {closepath} bind def
/C {setrgbcolor} bind def
/f {rlineto fill} bind def
/g {setgray} bind def
/Gshow {show} def   % May be redefined later in the file to support UTF-8
/vpt2 vpt 2 mul def
/hpt2 hpt 2 mul def
/Lshow {currentpoint stroke M 0 vshift R 
	Blacktext {gsave 0 setgray show grestore} {show} ifelse} def
/Rshow {currentpoint stroke M dup stringwidth pop neg vshift R
	Blacktext {gsave 0 setgray show grestore} {show} ifelse} def
/Cshow {currentpoint stroke M dup stringwidth pop -2 div vshift R 
	Blacktext {gsave 0 setgray show grestore} {show} ifelse} def
/UP {dup vpt_ mul /vpt exch def hpt_ mul /hpt exch def
  /hpt2 hpt 2 mul def /vpt2 vpt 2 mul def} def
/DL {Color {setrgbcolor Solid {pop []} if 0 setdash}
 {pop pop pop 0 setgray Solid {pop []} if 0 setdash} ifelse} def
/BL {stroke userlinewidth 2 mul setlinewidth
	Rounded {1 setlinejoin 1 setlinecap} if} def
/AL {stroke userlinewidth 2 div setlinewidth
	Rounded {1 setlinejoin 1 setlinecap} if} def
/UL {dup gnulinewidth mul /userlinewidth exch def
	dup 1 lt {pop 1} if 10 mul /udl exch def} def
/PL {stroke userlinewidth setlinewidth
	Rounded {1 setlinejoin 1 setlinecap} if} def
3.8 setmiterlimit
% Default Line colors
/LCw {1 1 1} def
/LCb {0 0 0} def
/LCa {0 0 0} def
/LC0 {1 0 0} def
/LC1 {0 1 0} def
/LC2 {0 0 1} def
/LC3 {1 0 1} def
/LC4 {0 1 1} def
/LC5 {1 1 0} def
/LC6 {0 0 0} def
/LC7 {1 0.3 0} def
/LC8 {0.5 0.5 0.5} def
% Default Line Types
/LTw {PL [] 1 setgray} def
/LTb {BL [] LCb DL} def
/LTa {AL [1 udl mul 2 udl mul] 0 setdash LCa setrgbcolor} def
/LT0 {PL [] LC0 DL} def
/LT1 {PL [4 dl1 2 dl2] LC1 DL} def
/LT2 {PL [2 dl1 3 dl2] LC2 DL} def
/LT3 {PL [1 dl1 1.5 dl2] LC3 DL} def
/LT4 {PL [6 dl1 2 dl2 1 dl1 2 dl2] LC4 DL} def
/LT5 {PL [3 dl1 3 dl2 1 dl1 3 dl2] LC5 DL} def
/LT6 {PL [2 dl1 2 dl2 2 dl1 6 dl2] LC6 DL} def
/LT7 {PL [1 dl1 2 dl2 6 dl1 2 dl2 1 dl1 2 dl2] LC7 DL} def
/LT8 {PL [2 dl1 2 dl2 2 dl1 2 dl2 2 dl1 2 dl2 2 dl1 4 dl2] LC8 DL} def
/Pnt {stroke [] 0 setdash gsave 1 setlinecap M 0 0 V stroke grestore} def
/Dia {stroke [] 0 setdash 2 copy vpt add M
  hpt neg vpt neg V hpt vpt neg V
  hpt vpt V hpt neg vpt V closepath stroke
  Pnt} def
/Pls {stroke [] 0 setdash vpt sub M 0 vpt2 V
  currentpoint stroke M
  hpt neg vpt neg R hpt2 0 V stroke
 } def
/Box {stroke [] 0 setdash 2 copy exch hpt sub exch vpt add M
  0 vpt2 neg V hpt2 0 V 0 vpt2 V
  hpt2 neg 0 V closepath stroke
  Pnt} def
/Crs {stroke [] 0 setdash exch hpt sub exch vpt add M
  hpt2 vpt2 neg V currentpoint stroke M
  hpt2 neg 0 R hpt2 vpt2 V stroke} def
/TriU {stroke [] 0 setdash 2 copy vpt 1.12 mul add M
  hpt neg vpt -1.62 mul V
  hpt 2 mul 0 V
  hpt neg vpt 1.62 mul V closepath stroke
  Pnt} def
/Star {2 copy Pls Crs} def
/BoxF {stroke [] 0 setdash exch hpt sub exch vpt add M
  0 vpt2 neg V hpt2 0 V 0 vpt2 V
  hpt2 neg 0 V closepath fill} def
/TriUF {stroke [] 0 setdash vpt 1.12 mul add M
  hpt neg vpt -1.62 mul V
  hpt 2 mul 0 V
  hpt neg vpt 1.62 mul V closepath fill} def
/TriD {stroke [] 0 setdash 2 copy vpt 1.12 mul sub M
  hpt neg vpt 1.62 mul V
  hpt 2 mul 0 V
  hpt neg vpt -1.62 mul V closepath stroke
  Pnt} def
/TriDF {stroke [] 0 setdash vpt 1.12 mul sub M
  hpt neg vpt 1.62 mul V
  hpt 2 mul 0 V
  hpt neg vpt -1.62 mul V closepath fill} def
/DiaF {stroke [] 0 setdash vpt add M
  hpt neg vpt neg V hpt vpt neg V
  hpt vpt V hpt neg vpt V closepath fill} def
/Pent {stroke [] 0 setdash 2 copy gsave
  translate 0 hpt M 4 {72 rotate 0 hpt L} repeat
  closepath stroke grestore Pnt} def
/PentF {stroke [] 0 setdash gsave
  translate 0 hpt M 4 {72 rotate 0 hpt L} repeat
  closepath fill grestore} def
/Circle {stroke [] 0 setdash 2 copy
  hpt 0 360 arc stroke Pnt} def
/CircleF {stroke [] 0 setdash hpt 0 360 arc fill} def
/C0 {BL [] 0 setdash 2 copy moveto vpt 90 450 arc} bind def
/C1 {BL [] 0 setdash 2 copy moveto
	2 copy vpt 0 90 arc closepath fill
	vpt 0 360 arc closepath} bind def
/C2 {BL [] 0 setdash 2 copy moveto
	2 copy vpt 90 180 arc closepath fill
	vpt 0 360 arc closepath} bind def
/C3 {BL [] 0 setdash 2 copy moveto
	2 copy vpt 0 180 arc closepath fill
	vpt 0 360 arc closepath} bind def
/C4 {BL [] 0 setdash 2 copy moveto
	2 copy vpt 180 270 arc closepath fill
	vpt 0 360 arc closepath} bind def
/C5 {BL [] 0 setdash 2 copy moveto
	2 copy vpt 0 90 arc
	2 copy moveto
	2 copy vpt 180 270 arc closepath fill
	vpt 0 360 arc} bind def
/C6 {BL [] 0 setdash 2 copy moveto
	2 copy vpt 90 270 arc closepath fill
	vpt 0 360 arc closepath} bind def
/C7 {BL [] 0 setdash 2 copy moveto
	2 copy vpt 0 270 arc closepath fill
	vpt 0 360 arc closepath} bind def
/C8 {BL [] 0 setdash 2 copy moveto
	2 copy vpt 270 360 arc closepath fill
	vpt 0 360 arc closepath} bind def
/C9 {BL [] 0 setdash 2 copy moveto
	2 copy vpt 270 450 arc closepath fill
	vpt 0 360 arc closepath} bind def
/C10 {BL [] 0 setdash 2 copy 2 copy moveto vpt 270 360 arc closepath fill
	2 copy moveto
	2 copy vpt 90 180 arc closepath fill
	vpt 0 360 arc closepath} bind def
/C11 {BL [] 0 setdash 2 copy moveto
	2 copy vpt 0 180 arc closepath fill
	2 copy moveto
	2 copy vpt 270 360 arc closepath fill
	vpt 0 360 arc closepath} bind def
/C12 {BL [] 0 setdash 2 copy moveto
	2 copy vpt 180 360 arc closepath fill
	vpt 0 360 arc closepath} bind def
/C13 {BL [] 0 setdash 2 copy moveto
	2 copy vpt 0 90 arc closepath fill
	2 copy moveto
	2 copy vpt 180 360 arc closepath fill
	vpt 0 360 arc closepath} bind def
/C14 {BL [] 0 setdash 2 copy moveto
	2 copy vpt 90 360 arc closepath fill
	vpt 0 360 arc} bind def
/C15 {BL [] 0 setdash 2 copy vpt 0 360 arc closepath fill
	vpt 0 360 arc closepath} bind def
/Rec {newpath 4 2 roll moveto 1 index 0 rlineto 0 exch rlineto
	neg 0 rlineto closepath} bind def
/Square {dup Rec} bind def
/Bsquare {vpt sub exch vpt sub exch vpt2 Square} bind def
/S0 {BL [] 0 setdash 2 copy moveto 0 vpt rlineto BL Bsquare} bind def
/S1 {BL [] 0 setdash 2 copy vpt Square fill Bsquare} bind def
/S2 {BL [] 0 setdash 2 copy exch vpt sub exch vpt Square fill Bsquare} bind def
/S3 {BL [] 0 setdash 2 copy exch vpt sub exch vpt2 vpt Rec fill Bsquare} bind def
/S4 {BL [] 0 setdash 2 copy exch vpt sub exch vpt sub vpt Square fill Bsquare} bind def
/S5 {BL [] 0 setdash 2 copy 2 copy vpt Square fill
	exch vpt sub exch vpt sub vpt Square fill Bsquare} bind def
/S6 {BL [] 0 setdash 2 copy exch vpt sub exch vpt sub vpt vpt2 Rec fill Bsquare} bind def
/S7 {BL [] 0 setdash 2 copy exch vpt sub exch vpt sub vpt vpt2 Rec fill
	2 copy vpt Square fill Bsquare} bind def
/S8 {BL [] 0 setdash 2 copy vpt sub vpt Square fill Bsquare} bind def
/S9 {BL [] 0 setdash 2 copy vpt sub vpt vpt2 Rec fill Bsquare} bind def
/S10 {BL [] 0 setdash 2 copy vpt sub vpt Square fill 2 copy exch vpt sub exch vpt Square fill
	Bsquare} bind def
/S11 {BL [] 0 setdash 2 copy vpt sub vpt Square fill 2 copy exch vpt sub exch vpt2 vpt Rec fill
	Bsquare} bind def
/S12 {BL [] 0 setdash 2 copy exch vpt sub exch vpt sub vpt2 vpt Rec fill Bsquare} bind def
/S13 {BL [] 0 setdash 2 copy exch vpt sub exch vpt sub vpt2 vpt Rec fill
	2 copy vpt Square fill Bsquare} bind def
/S14 {BL [] 0 setdash 2 copy exch vpt sub exch vpt sub vpt2 vpt Rec fill
	2 copy exch vpt sub exch vpt Square fill Bsquare} bind def
/S15 {BL [] 0 setdash 2 copy Bsquare fill Bsquare} bind def
/D0 {gsave translate 45 rotate 0 0 S0 stroke grestore} bind def
/D1 {gsave translate 45 rotate 0 0 S1 stroke grestore} bind def
/D2 {gsave translate 45 rotate 0 0 S2 stroke grestore} bind def
/D3 {gsave translate 45 rotate 0 0 S3 stroke grestore} bind def
/D4 {gsave translate 45 rotate 0 0 S4 stroke grestore} bind def
/D5 {gsave translate 45 rotate 0 0 S5 stroke grestore} bind def
/D6 {gsave translate 45 rotate 0 0 S6 stroke grestore} bind def
/D7 {gsave translate 45 rotate 0 0 S7 stroke grestore} bind def
/D8 {gsave translate 45 rotate 0 0 S8 stroke grestore} bind def
/D9 {gsave translate 45 rotate 0 0 S9 stroke grestore} bind def
/D10 {gsave translate 45 rotate 0 0 S10 stroke grestore} bind def
/D11 {gsave translate 45 rotate 0 0 S11 stroke grestore} bind def
/D12 {gsave translate 45 rotate 0 0 S12 stroke grestore} bind def
/D13 {gsave translate 45 rotate 0 0 S13 stroke grestore} bind def
/D14 {gsave translate 45 rotate 0 0 S14 stroke grestore} bind def
/D15 {gsave translate 45 rotate 0 0 S15 stroke grestore} bind def
/DiaE {stroke [] 0 setdash vpt add M
  hpt neg vpt neg V hpt vpt neg V
  hpt vpt V hpt neg vpt V closepath stroke} def
/BoxE {stroke [] 0 setdash exch hpt sub exch vpt add M
  0 vpt2 neg V hpt2 0 V 0 vpt2 V
  hpt2 neg 0 V closepath stroke} def
/TriUE {stroke [] 0 setdash vpt 1.12 mul add M
  hpt neg vpt -1.62 mul V
  hpt 2 mul 0 V
  hpt neg vpt 1.62 mul V closepath stroke} def
/TriDE {stroke [] 0 setdash vpt 1.12 mul sub M
  hpt neg vpt 1.62 mul V
  hpt 2 mul 0 V
  hpt neg vpt -1.62 mul V closepath stroke} def
/PentE {stroke [] 0 setdash gsave
  translate 0 hpt M 4 {72 rotate 0 hpt L} repeat
  closepath stroke grestore} def
/CircE {stroke [] 0 setdash 
  hpt 0 360 arc stroke} def
/Opaque {gsave closepath 1 setgray fill grestore 0 setgray closepath} def
/DiaW {stroke [] 0 setdash vpt add M
  hpt neg vpt neg V hpt vpt neg V
  hpt vpt V hpt neg vpt V Opaque stroke} def
/BoxW {stroke [] 0 setdash exch hpt sub exch vpt add M
  0 vpt2 neg V hpt2 0 V 0 vpt2 V
  hpt2 neg 0 V Opaque stroke} def
/TriUW {stroke [] 0 setdash vpt 1.12 mul add M
  hpt neg vpt -1.62 mul V
  hpt 2 mul 0 V
  hpt neg vpt 1.62 mul V Opaque stroke} def
/TriDW {stroke [] 0 setdash vpt 1.12 mul sub M
  hpt neg vpt 1.62 mul V
  hpt 2 mul 0 V
  hpt neg vpt -1.62 mul V Opaque stroke} def
/PentW {stroke [] 0 setdash gsave
  translate 0 hpt M 4 {72 rotate 0 hpt L} repeat
  Opaque stroke grestore} def
/CircW {stroke [] 0 setdash 
  hpt 0 360 arc Opaque stroke} def
/BoxFill {gsave Rec 1 setgray fill grestore} def
/Density {
  /Fillden exch def
  currentrgbcolor
  /ColB exch def /ColG exch def /ColR exch def
  /ColR ColR Fillden mul Fillden sub 1 add def
  /ColG ColG Fillden mul Fillden sub 1 add def
  /ColB ColB Fillden mul Fillden sub 1 add def
  ColR ColG ColB setrgbcolor} def
/BoxColFill {gsave Rec PolyFill} def
/PolyFill {gsave Density fill grestore grestore} def
/h {rlineto rlineto rlineto gsave closepath fill grestore} bind def
%
% PostScript Level 1 Pattern Fill routine for rectangles
% Usage: x y w h s a XX PatternFill
%	x,y = lower left corner of box to be filled
%	w,h = width and height of box
%	  a = angle in degrees between lines and x-axis
%	 XX = 0/1 for no/yes cross-hatch
%
/PatternFill {gsave /PFa [ 9 2 roll ] def
  PFa 0 get PFa 2 get 2 div add PFa 1 get PFa 3 get 2 div add translate
  PFa 2 get -2 div PFa 3 get -2 div PFa 2 get PFa 3 get Rec
  TransparentPatterns {} {gsave 1 setgray fill grestore} ifelse
  clip
  currentlinewidth 0.5 mul setlinewidth
  /PFs PFa 2 get dup mul PFa 3 get dup mul add sqrt def
  0 0 M PFa 5 get rotate PFs -2 div dup translate
  0 1 PFs PFa 4 get div 1 add floor cvi
	{PFa 4 get mul 0 M 0 PFs V} for
  0 PFa 6 get ne {
	0 1 PFs PFa 4 get div 1 add floor cvi
	{PFa 4 get mul 0 2 1 roll M PFs 0 V} for
 } if
  stroke grestore} def
%
/languagelevel where
 {pop languagelevel} {1} ifelse
 2 lt
	{/InterpretLevel1 true def}
	{/InterpretLevel1 Level1 def}
 ifelse
%
% PostScript level 2 pattern fill definitions
%
/Level2PatternFill {
/Tile8x8 {/PaintType 2 /PatternType 1 /TilingType 1 /BBox [0 0 8 8] /XStep 8 /YStep 8}
	bind def
/KeepColor {currentrgbcolor [/Pattern /DeviceRGB] setcolorspace} bind def
<< Tile8x8
 /PaintProc {0.5 setlinewidth pop 0 0 M 8 8 L 0 8 M 8 0 L stroke} 
>> matrix makepattern
/Pat1 exch def
<< Tile8x8
 /PaintProc {0.5 setlinewidth pop 0 0 M 8 8 L 0 8 M 8 0 L stroke
	0 4 M 4 8 L 8 4 L 4 0 L 0 4 L stroke}
>> matrix makepattern
/Pat2 exch def
<< Tile8x8
 /PaintProc {0.5 setlinewidth pop 0 0 M 0 8 L
	8 8 L 8 0 L 0 0 L fill}
>> matrix makepattern
/Pat3 exch def
<< Tile8x8
 /PaintProc {0.5 setlinewidth pop -4 8 M 8 -4 L
	0 12 M 12 0 L stroke}
>> matrix makepattern
/Pat4 exch def
<< Tile8x8
 /PaintProc {0.5 setlinewidth pop -4 0 M 8 12 L
	0 -4 M 12 8 L stroke}
>> matrix makepattern
/Pat5 exch def
<< Tile8x8
 /PaintProc {0.5 setlinewidth pop -2 8 M 4 -4 L
	0 12 M 8 -4 L 4 12 M 10 0 L stroke}
>> matrix makepattern
/Pat6 exch def
<< Tile8x8
 /PaintProc {0.5 setlinewidth pop -2 0 M 4 12 L
	0 -4 M 8 12 L 4 -4 M 10 8 L stroke}
>> matrix makepattern
/Pat7 exch def
<< Tile8x8
 /PaintProc {0.5 setlinewidth pop 8 -2 M -4 4 L
	12 0 M -4 8 L 12 4 M 0 10 L stroke}
>> matrix makepattern
/Pat8 exch def
<< Tile8x8
 /PaintProc {0.5 setlinewidth pop 0 -2 M 12 4 L
	-4 0 M 12 8 L -4 4 M 8 10 L stroke}
>> matrix makepattern
/Pat9 exch def
/Pattern1 {PatternBgnd KeepColor Pat1 setpattern} bind def
/Pattern2 {PatternBgnd KeepColor Pat2 setpattern} bind def
/Pattern3 {PatternBgnd KeepColor Pat3 setpattern} bind def
/Pattern4 {PatternBgnd KeepColor Landscape {Pat5} {Pat4} ifelse setpattern} bind def
/Pattern5 {PatternBgnd KeepColor Landscape {Pat4} {Pat5} ifelse setpattern} bind def
/Pattern6 {PatternBgnd KeepColor Landscape {Pat9} {Pat6} ifelse setpattern} bind def
/Pattern7 {PatternBgnd KeepColor Landscape {Pat8} {Pat7} ifelse setpattern} bind def
} def
%
%
%End of PostScript Level 2 code
%
/PatternBgnd {
  TransparentPatterns {} {gsave 1 setgray fill grestore} ifelse
} def
%
% Substitute for Level 2 pattern fill codes with
% grayscale if Level 2 support is not selected.
%
/Level1PatternFill {
/Pattern1 {0.250 Density} bind def
/Pattern2 {0.500 Density} bind def
/Pattern3 {0.750 Density} bind def
/Pattern4 {0.125 Density} bind def
/Pattern5 {0.375 Density} bind def
/Pattern6 {0.625 Density} bind def
/Pattern7 {0.875 Density} bind def
} def
%
% Now test for support of Level 2 code
%
Level1 {Level1PatternFill} {Level2PatternFill} ifelse
%
/Symbol-Oblique /Symbol findfont [1 0 .167 1 0 0] makefont
dup length dict begin {1 index /FID eq {pop pop} {def} ifelse} forall
currentdict end definefont pop
/MFshow {
   { dup 5 get 3 ge
     { 5 get 3 eq {gsave} {grestore} ifelse }
     {dup dup 0 get findfont exch 1 get scalefont setfont
     [ currentpoint ] exch dup 2 get 0 exch R dup 5 get 2 ne {dup dup 6
     get exch 4 get {Gshow} {stringwidth pop 0 R} ifelse }if dup 5 get 0 eq
     {dup 3 get {2 get neg 0 exch R pop} {pop aload pop M} ifelse} {dup 5
     get 1 eq {dup 2 get exch dup 3 get exch 6 get stringwidth pop -2 div
     dup 0 R} {dup 6 get stringwidth pop -2 div 0 R 6 get
     show 2 index {aload pop M neg 3 -1 roll neg R pop pop} {pop pop pop
     pop aload pop M} ifelse }ifelse }ifelse }
     ifelse }
   forall} def
/Gswidth {dup type /stringtype eq {stringwidth} {pop (n) stringwidth} ifelse} def
/MFwidth {0 exch { dup 5 get 3 ge { 5 get 3 eq { 0 } { pop } ifelse }
 {dup 3 get{dup dup 0 get findfont exch 1 get scalefont setfont
     6 get Gswidth pop add} {pop} ifelse} ifelse} forall} def
/MLshow { currentpoint stroke M
  0 exch R
  Blacktext {gsave 0 setgray MFshow grestore} {MFshow} ifelse } bind def
/MRshow { currentpoint stroke M
  exch dup MFwidth neg 3 -1 roll R
  Blacktext {gsave 0 setgray MFshow grestore} {MFshow} ifelse } bind def
/MCshow { currentpoint stroke M
  exch dup MFwidth -2 div 3 -1 roll R
  Blacktext {gsave 0 setgray MFshow grestore} {MFshow} ifelse } bind def
/XYsave    { [( ) 1 2 true false 3 ()] } bind def
/XYrestore { [( ) 1 2 true false 4 ()] } bind def
Level1 SuppressPDFMark or 
{} {
/SDict 10 dict def
systemdict /pdfmark known not {
  userdict /pdfmark systemdict /cleartomark get put
} if
SDict begin [
  /Title (plot.ps)
  /Subject (gnuplot plot)
  /Creator (gnuplot 4.6 patchlevel 4)
  /Author (pulkit)
%  /Producer (gnuplot)
%  /Keywords ()
  /CreationDate (Sun May 15 17:31:12 2016)
  /DOCINFO pdfmark
end
} ifelse
end
%%EndProlog
%%Page: 1 1
gnudict begin
gsave
doclip
50 50 translate
0.100 0.100 scale
90 rotate
0 -5040 translate
0 setgray
newpath
(Helvetica) findfont 140 scalefont setfont
BackgroundColor 0 lt 3 1 roll 0 lt exch 0 lt or or not {gsave BackgroundColor C clippath fill grestore} if
1.000 UL
LTb
LCb setrgbcolor
462 280 M
63 0 V
6422 0 R
-63 0 V
stroke
378 280 M
[ [(Helvetica) 140.0 0.0 true true 0 ( 9)]
] -46.7 MRshow
1.000 UL
LTb
LCb setrgbcolor
462 900 M
63 0 V
6422 0 R
-63 0 V
stroke
378 900 M
[ [(Helvetica) 140.0 0.0 true true 0 ( 10)]
] -46.7 MRshow
1.000 UL
LTb
LCb setrgbcolor
462 1520 M
63 0 V
6422 0 R
-63 0 V
stroke
378 1520 M
[ [(Helvetica) 140.0 0.0 true true 0 ( 11)]
] -46.7 MRshow
1.000 UL
LTb
LCb setrgbcolor
462 2140 M
63 0 V
6422 0 R
-63 0 V
stroke
378 2140 M
[ [(Helvetica) 140.0 0.0 true true 0 ( 12)]
] -46.7 MRshow
1.000 UL
LTb
LCb setrgbcolor
462 2759 M
63 0 V
6422 0 R
-63 0 V
stroke
378 2759 M
[ [(Helvetica) 140.0 0.0 true true 0 ( 13)]
] -46.7 MRshow
1.000 UL
LTb
LCb setrgbcolor
462 3379 M
63 0 V
6422 0 R
-63 0 V
stroke
378 3379 M
[ [(Helvetica) 140.0 0.0 true true 0 ( 14)]
] -46.7 MRshow
1.000 UL
LTb
LCb setrgbcolor
462 3999 M
63 0 V
6422 0 R
-63 0 V
stroke
378 3999 M
[ [(Helvetica) 140.0 0.0 true true 0 ( 15)]
] -46.7 MRshow
1.000 UL
LTb
LCb setrgbcolor
462 4619 M
63 0 V
6422 0 R
-63 0 V
stroke
378 4619 M
[ [(Helvetica) 140.0 0.0 true true 0 ( 16)]
] -46.7 MRshow
1.000 UL
LTb
LCb setrgbcolor
462 280 M
0 63 V
0 4276 R
0 -63 V
stroke
462 140 M
[ [(Helvetica) 140.0 0.0 true true 0 ( 0)]
] -46.7 MCshow
1.000 UL
LTb
LCb setrgbcolor
1759 280 M
0 63 V
0 4276 R
0 -63 V
stroke
1759 140 M
[ [(Helvetica) 140.0 0.0 true true 0 ( 0.05)]
] -46.7 MCshow
1.000 UL
LTb
LCb setrgbcolor
3056 280 M
0 63 V
0 4276 R
0 -63 V
stroke
3056 140 M
[ [(Helvetica) 140.0 0.0 true true 0 ( 0.1)]
] -46.7 MCshow
1.000 UL
LTb
LCb setrgbcolor
4353 280 M
0 63 V
0 4276 R
0 -63 V
stroke
4353 140 M
[ [(Helvetica) 140.0 0.0 true true 0 ( 0.15)]
] -46.7 MCshow
1.000 UL
LTb
LCb setrgbcolor
5650 280 M
0 63 V
0 4276 R
0 -63 V
stroke
5650 140 M
[ [(Helvetica) 140.0 0.0 true true 0 ( 0.2)]
] -46.7 MCshow
1.000 UL
LTb
LCb setrgbcolor
6947 280 M
0 63 V
0 4276 R
0 -63 V
stroke
6947 140 M
[ [(Helvetica) 140.0 0.0 true true 0 ( 0.25)]
] -46.7 MCshow
1.000 UL
LTb
LCb setrgbcolor
1.000 UL
LTb
LCb setrgbcolor
462 4619 N
462 280 L
6485 0 V
0 4339 V
-6485 0 V
Z stroke
LTb
3704 4829 M
[ [(Helvetica) 140.0 0.0 true true 0 (Density)]
] -46.7 MCshow
1.000 UP
1.000 UL
LTb
LCb setrgbcolor
% Begin plot #1
1.000 UL
LT0
LC0 setrgbcolor
/Helvetica findfont 140 scalefont setfont
/vshift -46 def
1370 2408 M
26 0 V
26 0 V
26 0 V
26 0 V
26 0 V
0 1437 R
26 0 V
25 0 V
26 0 V
26 0 V
26 0 V
0 -333 R
26 0 V
26 0 V
26 0 V
26 0 V
26 0 V
0 -987 R
26 0 V
26 0 V
26 0 V
26 0 V
26 0 V
0 -931 R
26 0 V
26 0 V
26 0 V
25 0 V
26 0 V
0 -514 R
26 0 V
26 0 V
26 0 V
26 0 V
26 0 V
0 -183 R
26 0 V
26 0 V
26 0 V
26 0 V
26 0 V
0 -29 R
26 0 V
26 0 V
26 0 V
26 0 V
26 0 V
0 13 R
25 0 V
26 0 V
26 0 V
26 0 V
26 0 V
0 12 R
26 0 V
26 0 V
26 0 V
26 0 V
26 0 V
0 5 R
26 0 V
26 0 V
26 0 V
26 0 V
26 0 V
0 2 R
26 0 V
25 0 V
26 0 V
26 0 V
26 0 V
26 0 V
26 0 V
26 0 V
26 0 V
26 0 V
26 0 V
26 0 V
26 0 V
26 0 V
26 0 V
26 0 V
26 0 V
26 0 V
25 0 V
26 0 V
26 0 V
26 0 V
26 0 V
26 0 V
26 0 V
26 0 V
26 0 V
26 0 V
26 0 V
26 0 V
26 0 V
26 0 V
26 0 V
26 0 V
26 0 V
25 0 V
26 0 V
26 0 V
stroke 3782 900 M
26 0 V
26 0 V
26 0 V
26 0 V
26 0 V
26 0 V
26 0 V
26 0 V
26 0 V
26 0 V
26 0 V
26 0 V
26 0 V
25 0 V
26 0 V
26 0 V
26 0 V
26 0 V
26 0 V
26 0 V
26 0 V
26 0 V
26 0 V
26 0 V
26 0 V
26 0 V
26 0 V
26 0 V
26 0 V
26 0 V
25 0 V
26 0 V
26 0 V
26 0 V
26 0 V
26 0 V
26 0 V
26 0 V
26 0 V
26 0 V
26 0 V
26 0 V
26 0 V
26 0 V
26 0 V
26 0 V
26 0 V
25 0 V
26 0 V
26 0 V
26 0 V
26 0 V
26 0 V
26 0 V
26 0 V
26 0 V
26 0 V
26 0 V
26 0 V
26 0 V
26 0 V
26 0 V
26 0 V
25 0 V
26 0 V
26 0 V
26 0 V
26 0 V
26 0 V
26 0 V
26 0 V
26 0 V
26 0 V
26 0 V
26 0 V
26 0 V
26 0 V
26 0 V
26 0 V
26 0 V
25 0 V
26 0 V
26 0 V
26 0 V
26 0 V
26 0 V
26 0 V
26 0 V
26 0 V
26 0 V
26 0 V
26 0 V
26 0 V
26 0 V
26 0 V
26 0 V
26 0 V
25 0 V
26 0 V
26 0 V
26 0 V
26 0 V
26 0 V
26 0 V
stroke 6480 900 M
26 0 V
26 0 V
26 0 V
26 0 V
26 0 V
26 0 V
26 0 V
26 0 V
26 0 V
25 0 V
26 0 V
26 0 V
26 0 V
% End plot #1
% Begin plot #2
1.000 UP
stroke
LT1
LC1 setrgbcolor
/Helvetica findfont 140 scalefont setfont
1435 2655 Crs
1564 4014 Crs
1694 3599 Crs
1824 2540 Crs
1954 1594 Crs
2083 1081 Crs
2213 897 Crs
2343 868 Crs
2472 881 Crs
2602 893 Crs
2732 898 Crs
2861 900 Crs
2991 900 Crs
3121 900 Crs
3251 900 Crs
3380 900 Crs
3510 900 Crs
3640 900 Crs
3769 900 Crs
3899 900 Crs
4029 900 Crs
4158 900 Crs
4288 900 Crs
4418 900 Crs
4548 900 Crs
4677 900 Crs
4807 900 Crs
4937 900 Crs
5066 900 Crs
5196 900 Crs
5326 900 Crs
5455 900 Crs
5585 900 Crs
5715 900 Crs
5845 900 Crs
5974 900 Crs
6104 900 Crs
6234 900 Crs
6363 900 Crs
6493 900 Crs
6623 900 Crs
6752 900 Crs
% End plot #2
1.000 UL
LTb
LCb setrgbcolor
462 4619 N
462 280 L
6485 0 V
0 4339 V
-6485 0 V
Z stroke
1.000 UP
1.000 UL
LTb
LCb setrgbcolor
stroke
grestore
end
showpage
%%Page: 2 2
gnudict begin
gsave
doclip
50 50 translate
0.100 0.100 scale
90 rotate
0 -5040 translate
0 setgray
newpath
(Helvetica) findfont 140 scalefont setfont
BackgroundColor 0 lt 3 1 roll 0 lt exch 0 lt or or not {gsave BackgroundColor C clippath fill grestore} if
1.000 UL
LTb
LCb setrgbcolor
546 280 M
63 0 V
6338 0 R
-63 0 V
stroke
462 280 M
[ [(Helvetica) 140.0 0.0 true true 0 (-0.2)]
] -46.7 MRshow
1.000 UL
LTb
LCb setrgbcolor
546 674 M
63 0 V
6338 0 R
-63 0 V
stroke
462 674 M
[ [(Helvetica) 140.0 0.0 true true 0 ( 0)]
] -46.7 MRshow
1.000 UL
LTb
LCb setrgbcolor
546 1069 M
63 0 V
6338 0 R
-63 0 V
stroke
462 1069 M
[ [(Helvetica) 140.0 0.0 true true 0 ( 0.2)]
] -46.7 MRshow
1.000 UL
LTb
LCb setrgbcolor
546 1463 M
63 0 V
6338 0 R
-63 0 V
stroke
462 1463 M
[ [(Helvetica) 140.0 0.0 true true 0 ( 0.4)]
] -46.7 MRshow
1.000 UL
LTb
LCb setrgbcolor
546 1858 M
63 0 V
6338 0 R
-63 0 V
stroke
462 1858 M
[ [(Helvetica) 140.0 0.0 true true 0 ( 0.6)]
] -46.7 MRshow
1.000 UL
LTb
LCb setrgbcolor
546 2252 M
63 0 V
6338 0 R
-63 0 V
stroke
462 2252 M
[ [(Helvetica) 140.0 0.0 true true 0 ( 0.8)]
] -46.7 MRshow
1.000 UL
LTb
LCb setrgbcolor
546 2647 M
63 0 V
6338 0 R
-63 0 V
stroke
462 2647 M
[ [(Helvetica) 140.0 0.0 true true 0 ( 1)]
] -46.7 MRshow
1.000 UL
LTb
LCb setrgbcolor
546 3041 M
63 0 V
6338 0 R
-63 0 V
stroke
462 3041 M
[ [(Helvetica) 140.0 0.0 true true 0 ( 1.2)]
] -46.7 MRshow
1.000 UL
LTb
LCb setrgbcolor
546 3436 M
63 0 V
6338 0 R
-63 0 V
stroke
462 3436 M
[ [(Helvetica) 140.0 0.0 true true 0 ( 1.4)]
] -46.7 MRshow
1.000 UL
LTb
LCb setrgbcolor
546 3830 M
63 0 V
6338 0 R
-63 0 V
stroke
462 3830 M
[ [(Helvetica) 140.0 0.0 true true 0 ( 1.6)]
] -46.7 MRshow
1.000 UL
LTb
LCb setrgbcolor
546 4225 M
63 0 V
6338 0 R
-63 0 V
stroke
462 4225 M
[ [(Helvetica) 140.0 0.0 true true 0 ( 1.8)]
] -46.7 MRshow
1.000 UL
LTb
LCb setrgbcolor
546 4619 M
63 0 V
6338 0 R
-63 0 V
stroke
462 4619 M
[ [(Helvetica) 140.0 0.0 true true 0 ( 2)]
] -46.7 MRshow
1.000 UL
LTb
LCb setrgbcolor
546 280 M
0 63 V
0 4276 R
0 -63 V
stroke
546 140 M
[ [(Helvetica) 140.0 0.0 true true 0 ( 0)]
] -46.7 MCshow
1.000 UL
LTb
LCb setrgbcolor
1826 280 M
0 63 V
0 4276 R
0 -63 V
stroke
1826 140 M
[ [(Helvetica) 140.0 0.0 true true 0 ( 0.05)]
] -46.7 MCshow
1.000 UL
LTb
LCb setrgbcolor
3106 280 M
0 63 V
0 4276 R
0 -63 V
stroke
3106 140 M
[ [(Helvetica) 140.0 0.0 true true 0 ( 0.1)]
] -46.7 MCshow
1.000 UL
LTb
LCb setrgbcolor
4387 280 M
0 63 V
0 4276 R
0 -63 V
stroke
4387 140 M
[ [(Helvetica) 140.0 0.0 true true 0 ( 0.15)]
] -46.7 MCshow
1.000 UL
LTb
LCb setrgbcolor
5667 280 M
0 63 V
0 4276 R
0 -63 V
stroke
5667 140 M
[ [(Helvetica) 140.0 0.0 true true 0 ( 0.2)]
] -46.7 MCshow
1.000 UL
LTb
LCb setrgbcolor
6947 280 M
0 63 V
0 4276 R
0 -63 V
stroke
6947 140 M
[ [(Helvetica) 140.0 0.0 true true 0 ( 0.25)]
] -46.7 MCshow
1.000 UL
LTb
LCb setrgbcolor
1.000 UL
LTb
LCb setrgbcolor
546 4619 N
546 280 L
6401 0 V
0 4339 V
-6401 0 V
Z stroke
LTb
3746 4829 M
[ [(Helvetica) 140.0 0.0 true true 0 (Velocity)]
] -46.7 MCshow
1.000 UP
1.000 UL
LTb
LCb setrgbcolor
% Begin plot #1
1.000 UL
LT0
LC0 setrgbcolor
/Helvetica findfont 140 scalefont setfont
/vshift -46 def
1442 1163 M
26 0 V
25 0 V
26 0 V
26 0 V
25 0 V
0 -115 R
26 0 V
25 0 V
26 0 V
26 0 V
25 0 V
0 -98 R
26 0 V
25 0 V
26 0 V
26 0 V
25 0 V
0 -155 R
26 0 V
25 0 V
26 0 V
26 0 V
25 0 V
0 -105 R
26 0 V
25 0 V
26 0 V
26 0 V
25 0 V
0 -39 R
26 0 V
25 0 V
26 0 V
26 0 V
25 0 V
0 4 R
26 0 V
25 0 V
26 0 V
26 0 V
25 0 V
0 11 R
26 0 V
25 0 V
26 0 V
26 0 V
25 0 V
0 6 R
26 0 V
26 0 V
25 0 V
26 0 V
25 0 V
0 2 R
26 0 V
26 0 V
25 0 V
26 0 V
25 0 V
0 1 R
26 0 V
26 0 V
25 0 V
26 0 V
25 0 V
26 0 V
26 0 V
25 0 V
26 0 V
25 0 V
0 -1 R
26 0 V
26 0 V
25 0 V
26 0 V
25 0 V
26 0 V
26 0 V
25 0 V
26 0 V
25 0 V
26 0 V
26 0 V
25 0 V
26 0 V
25 0 V
26 0 V
26 0 V
25 0 V
26 0 V
25 0 V
26 0 V
26 0 V
25 0 V
26 0 V
25 0 V
26 0 V
26 0 V
25 0 V
26 0 V
26 0 V
25 0 V
26 0 V
25 0 V
stroke 3823 674 M
26 0 V
26 0 V
25 0 V
26 0 V
25 0 V
26 0 V
26 0 V
25 0 V
26 0 V
25 0 V
26 0 V
26 0 V
25 0 V
26 0 V
25 0 V
26 0 V
26 0 V
25 0 V
26 0 V
25 0 V
26 0 V
26 0 V
25 0 V
26 0 V
25 0 V
26 0 V
26 0 V
25 0 V
26 0 V
25 0 V
26 0 V
26 0 V
25 0 V
26 0 V
25 0 V
26 0 V
26 0 V
25 0 V
26 0 V
25 0 V
26 0 V
26 0 V
25 0 V
26 0 V
25 0 V
26 0 V
26 0 V
25 0 V
26 0 V
26 0 V
25 0 V
26 0 V
25 0 V
26 0 V
26 0 V
25 0 V
26 0 V
25 0 V
26 0 V
26 0 V
25 0 V
26 0 V
25 0 V
26 0 V
26 0 V
25 0 V
26 0 V
25 0 V
26 0 V
26 0 V
25 0 V
26 0 V
25 0 V
26 0 V
26 0 V
25 0 V
26 0 V
25 0 V
26 0 V
26 0 V
25 0 V
26 0 V
25 0 V
26 0 V
26 0 V
25 0 V
26 0 V
25 0 V
26 0 V
26 0 V
25 0 V
26 0 V
25 0 V
26 0 V
26 0 V
25 0 V
26 0 V
26 0 V
25 0 V
26 0 V
25 0 V
26 0 V
26 0 V
25 0 V
stroke 6486 674 M
26 0 V
25 0 V
26 0 V
26 0 V
25 0 V
26 0 V
25 0 V
26 0 V
26 0 V
25 0 V
26 0 V
25 0 V
26 0 V
% End plot #1
% Begin plot #2
1.000 UP
stroke
LT1
LC1 setrgbcolor
/Helvetica findfont 140 scalefont setfont
1506 4318 Crs
1634 3230 Crs
1762 2336 Crs
1890 1341 Crs
2018 756 Crs
2146 549 Crs
2274 567 Crs
2402 625 Crs
2530 660 Crs
2658 673 Crs
2786 675 Crs
2914 675 Crs
3042 675 Crs
3170 674 Crs
3298 674 Crs
3426 674 Crs
3554 674 Crs
3682 674 Crs
3811 674 Crs
3939 674 Crs
4067 674 Crs
4195 674 Crs
4323 674 Crs
4451 674 Crs
4579 674 Crs
4707 674 Crs
4835 674 Crs
4963 674 Crs
5091 674 Crs
5219 674 Crs
5347 674 Crs
5475 674 Crs
5603 674 Crs
5731 674 Crs
5859 674 Crs
5987 674 Crs
6115 674 Crs
6243 674 Crs
6371 674 Crs
6499 674 Crs
6627 674 Crs
6755 674 Crs
% End plot #2
1.000 UL
LTb
LCb setrgbcolor
546 4619 N
546 280 L
6401 0 V
0 4339 V
-6401 0 V
Z stroke
1.000 UP
1.000 UL
LTb
LCb setrgbcolor
stroke
grestore
end
showpage
%%Page: 3 3
gnudict begin
gsave
doclip
50 50 translate
0.100 0.100 scale
90 rotate
0 -5040 translate
0 setgray
newpath
(Helvetica) findfont 140 scalefont setfont
BackgroundColor 0 lt 3 1 roll 0 lt exch 0 lt or or not {gsave BackgroundColor C clippath fill grestore} if
1.000 UL
LTb
LCb setrgbcolor
462 280 M
63 0 V
6422 0 R
-63 0 V
stroke
378 280 M
[ [(Helvetica) 140.0 0.0 true true 0 ( 0)]
] -46.7 MRshow
1.000 UL
LTb
LCb setrgbcolor
462 1003 M
63 0 V
6422 0 R
-63 0 V
stroke
378 1003 M
[ [(Helvetica) 140.0 0.0 true true 0 ( 5)]
] -46.7 MRshow
1.000 UL
LTb
LCb setrgbcolor
462 1726 M
63 0 V
6422 0 R
-63 0 V
stroke
378 1726 M
[ [(Helvetica) 140.0 0.0 true true 0 ( 10)]
] -46.7 MRshow
1.000 UL
LTb
LCb setrgbcolor
462 2450 M
63 0 V
6422 0 R
-63 0 V
stroke
378 2450 M
[ [(Helvetica) 140.0 0.0 true true 0 ( 15)]
] -46.7 MRshow
1.000 UL
LTb
LCb setrgbcolor
462 3173 M
63 0 V
6422 0 R
-63 0 V
stroke
378 3173 M
[ [(Helvetica) 140.0 0.0 true true 0 ( 20)]
] -46.7 MRshow
1.000 UL
LTb
LCb setrgbcolor
462 3896 M
63 0 V
6422 0 R
-63 0 V
stroke
378 3896 M
[ [(Helvetica) 140.0 0.0 true true 0 ( 25)]
] -46.7 MRshow
1.000 UL
LTb
LCb setrgbcolor
462 4619 M
63 0 V
6422 0 R
-63 0 V
stroke
378 4619 M
[ [(Helvetica) 140.0 0.0 true true 0 ( 30)]
] -46.7 MRshow
1.000 UL
LTb
LCb setrgbcolor
462 280 M
0 63 V
0 4276 R
0 -63 V
stroke
462 140 M
[ [(Helvetica) 140.0 0.0 true true 0 ( 0)]
] -46.7 MCshow
1.000 UL
LTb
LCb setrgbcolor
1759 280 M
0 63 V
0 4276 R
0 -63 V
stroke
1759 140 M
[ [(Helvetica) 140.0 0.0 true true 0 ( 0.05)]
] -46.7 MCshow
1.000 UL
LTb
LCb setrgbcolor
3056 280 M
0 63 V
0 4276 R
0 -63 V
stroke
3056 140 M
[ [(Helvetica) 140.0 0.0 true true 0 ( 0.1)]
] -46.7 MCshow
1.000 UL
LTb
LCb setrgbcolor
4353 280 M
0 63 V
0 4276 R
0 -63 V
stroke
4353 140 M
[ [(Helvetica) 140.0 0.0 true true 0 ( 0.15)]
] -46.7 MCshow
1.000 UL
LTb
LCb setrgbcolor
5650 280 M
0 63 V
0 4276 R
0 -63 V
stroke
5650 140 M
[ [(Helvetica) 140.0 0.0 true true 0 ( 0.2)]
] -46.7 MCshow
1.000 UL
LTb
LCb setrgbcolor
6947 280 M
0 63 V
0 4276 R
0 -63 V
stroke
6947 140 M
[ [(Helvetica) 140.0 0.0 true true 0 ( 0.25)]
] -46.7 MCshow
1.000 UL
LTb
LCb setrgbcolor
1.000 UL
LTb
LCb setrgbcolor
462 4619 N
462 280 L
6485 0 V
0 4339 V
-6485 0 V
Z stroke
LTb
3704 4829 M
[ [(Helvetica) 140.0 0.0 true true 0 (Pressure)]
] -46.7 MCshow
1.000 UP
1.000 UL
LTb
LCb setrgbcolor
% Begin plot #1
1.000 UL
LT0
LC0 setrgbcolor
/Helvetica findfont 140 scalefont setfont
/vshift -46 def
1370 280 M
26 0 V
26 0 V
26 0 V
26 0 V
26 0 V
26 0 V
25 0 V
26 0 V
26 0 V
26 0 V
26 0 V
26 0 V
26 0 V
26 0 V
26 0 V
26 0 V
26 0 V
26 0 V
26 0 V
26 0 V
26 0 V
26 0 V
26 0 V
25 0 V
26 0 V
26 0 V
26 0 V
26 0 V
26 0 V
26 0 V
26 0 V
26 0 V
26 0 V
26 0 V
26 0 V
26 0 V
26 0 V
26 0 V
26 0 V
26 0 V
25 0 V
26 0 V
26 0 V
26 0 V
26 0 V
26 0 V
26 0 V
26 0 V
26 0 V
26 0 V
26 0 V
26 0 V
26 0 V
26 0 V
26 0 V
26 0 V
25 0 V
26 0 V
26 0 V
26 0 V
26 0 V
26 0 V
26 0 V
26 0 V
26 0 V
26 0 V
26 0 V
26 0 V
26 0 V
26 0 V
26 0 V
26 0 V
26 0 V
25 0 V
26 0 V
26 0 V
26 0 V
26 0 V
26 0 V
26 0 V
26 0 V
26 0 V
26 0 V
26 0 V
26 0 V
26 0 V
26 0 V
26 0 V
26 0 V
26 0 V
25 0 V
26 0 V
26 0 V
26 0 V
26 0 V
26 0 V
26 0 V
26 0 V
26 0 V
26 0 V
26 0 V
26 0 V
26 0 V
26 0 V
stroke 4068 280 M
26 0 V
26 0 V
25 0 V
26 0 V
26 0 V
26 0 V
26 0 V
26 0 V
26 0 V
26 0 V
26 0 V
26 0 V
26 0 V
26 0 V
26 0 V
26 0 V
26 0 V
26 0 V
26 0 V
25 0 V
26 0 V
26 0 V
26 0 V
26 0 V
26 0 V
26 0 V
26 0 V
26 0 V
26 0 V
26 0 V
26 0 V
26 0 V
26 0 V
26 0 V
26 0 V
26 0 V
25 0 V
26 0 V
26 0 V
26 0 V
26 0 V
26 0 V
26 0 V
26 0 V
26 0 V
26 0 V
26 0 V
26 0 V
26 0 V
26 0 V
26 0 V
26 0 V
25 0 V
26 0 V
26 0 V
26 0 V
26 0 V
26 0 V
26 0 V
26 0 V
26 0 V
26 0 V
26 0 V
26 0 V
26 0 V
26 0 V
26 0 V
26 0 V
26 0 V
25 0 V
26 0 V
26 0 V
26 0 V
26 0 V
26 0 V
26 0 V
26 0 V
26 0 V
26 0 V
26 0 V
26 0 V
26 0 V
26 0 V
26 0 V
26 0 V
26 0 V
25 0 V
26 0 V
26 0 V
26 0 V
26 0 V
26 0 V
26 0 V
26 0 V
26 0 V
26 0 V
26 0 V
26 0 V
26 0 V
26 0 V
26 0 V
26 0 V
25 0 V
26 0 V
stroke 6765 280 M
26 0 V
26 0 V
% End plot #1
% Begin plot #2
1.000 UP
stroke
LT1
LC1 setrgbcolor
/Helvetica findfont 140 scalefont setfont
1435 3273 Crs
1564 4097 Crs
1694 3828 Crs
1824 3347 Crs
1954 2928 Crs
2083 2759 Crs
2213 2739 Crs
2343 2760 Crs
2472 2777 Crs
2602 2785 Crs
2732 2786 Crs
2861 2787 Crs
2991 2787 Crs
3121 2787 Crs
3251 2787 Crs
3380 2786 Crs
3510 2786 Crs
3640 2786 Crs
3769 2786 Crs
3899 2786 Crs
4029 2786 Crs
4158 2786 Crs
4288 2786 Crs
4418 2786 Crs
4548 2786 Crs
4677 2786 Crs
4807 2786 Crs
4937 2786 Crs
5066 2786 Crs
5196 2786 Crs
5326 2786 Crs
5455 2786 Crs
5585 2786 Crs
5715 2786 Crs
5845 2786 Crs
5974 2786 Crs
6104 2786 Crs
6234 2786 Crs
6363 2786 Crs
6493 2786 Crs
6623 2786 Crs
6752 2786 Crs
% End plot #2
1.000 UL
LTb
LCb setrgbcolor
462 4619 N
462 280 L
6485 0 V
0 4339 V
-6485 0 V
Z stroke
1.000 UP
1.000 UL
LTb
LCb setrgbcolor
stroke
grestore
end
showpage
%%Page: 4 4
gnudict begin
gsave
doclip
50 50 translate
0.100 0.100 scale
90 rotate
0 -5040 translate
0 setgray
newpath
(Helvetica) findfont 140 scalefont setfont
BackgroundColor 0 lt 3 1 roll 0 lt exch 0 lt or or not {gsave BackgroundColor C clippath fill grestore} if
1.000 UL
LTb
LCb setrgbcolor
546 280 M
63 0 V
6338 0 R
-63 0 V
stroke
462 280 M
[ [(Helvetica) 140.0 0.0 true true 0 ( 0)]
] -46.7 MRshow
1.000 UL
LTb
LCb setrgbcolor
546 762 M
63 0 V
6338 0 R
-63 0 V
stroke
462 762 M
[ [(Helvetica) 140.0 0.0 true true 0 ( 0.2)]
] -46.7 MRshow
1.000 UL
LTb
LCb setrgbcolor
546 1244 M
63 0 V
6338 0 R
-63 0 V
stroke
462 1244 M
[ [(Helvetica) 140.0 0.0 true true 0 ( 0.4)]
] -46.7 MRshow
1.000 UL
LTb
LCb setrgbcolor
546 1726 M
63 0 V
6338 0 R
-63 0 V
stroke
462 1726 M
[ [(Helvetica) 140.0 0.0 true true 0 ( 0.6)]
] -46.7 MRshow
1.000 UL
LTb
LCb setrgbcolor
546 2208 M
63 0 V
6338 0 R
-63 0 V
stroke
462 2208 M
[ [(Helvetica) 140.0 0.0 true true 0 ( 0.8)]
] -46.7 MRshow
1.000 UL
LTb
LCb setrgbcolor
546 2691 M
63 0 V
6338 0 R
-63 0 V
stroke
462 2691 M
[ [(Helvetica) 140.0 0.0 true true 0 ( 1)]
] -46.7 MRshow
1.000 UL
LTb
LCb setrgbcolor
546 3173 M
63 0 V
6338 0 R
-63 0 V
stroke
462 3173 M
[ [(Helvetica) 140.0 0.0 true true 0 ( 1.2)]
] -46.7 MRshow
1.000 UL
LTb
LCb setrgbcolor
546 3655 M
63 0 V
6338 0 R
-63 0 V
stroke
462 3655 M
[ [(Helvetica) 140.0 0.0 true true 0 ( 1.4)]
] -46.7 MRshow
1.000 UL
LTb
LCb setrgbcolor
546 4137 M
63 0 V
6338 0 R
-63 0 V
stroke
462 4137 M
[ [(Helvetica) 140.0 0.0 true true 0 ( 1.6)]
] -46.7 MRshow
1.000 UL
LTb
LCb setrgbcolor
546 4619 M
63 0 V
6338 0 R
-63 0 V
stroke
462 4619 M
[ [(Helvetica) 140.0 0.0 true true 0 ( 1.8)]
] -46.7 MRshow
1.000 UL
LTb
LCb setrgbcolor
546 280 M
0 63 V
0 4276 R
0 -63 V
stroke
546 140 M
[ [(Helvetica) 140.0 0.0 true true 0 ( 0)]
] -46.7 MCshow
1.000 UL
LTb
LCb setrgbcolor
1826 280 M
0 63 V
0 4276 R
0 -63 V
stroke
1826 140 M
[ [(Helvetica) 140.0 0.0 true true 0 ( 0.05)]
] -46.7 MCshow
1.000 UL
LTb
LCb setrgbcolor
3106 280 M
0 63 V
0 4276 R
0 -63 V
stroke
3106 140 M
[ [(Helvetica) 140.0 0.0 true true 0 ( 0.1)]
] -46.7 MCshow
1.000 UL
LTb
LCb setrgbcolor
4387 280 M
0 63 V
0 4276 R
0 -63 V
stroke
4387 140 M
[ [(Helvetica) 140.0 0.0 true true 0 ( 0.15)]
] -46.7 MCshow
1.000 UL
LTb
LCb setrgbcolor
5667 280 M
0 63 V
0 4276 R
0 -63 V
stroke
5667 140 M
[ [(Helvetica) 140.0 0.0 true true 0 ( 0.2)]
] -46.7 MCshow
1.000 UL
LTb
LCb setrgbcolor
6947 280 M
0 63 V
0 4276 R
0 -63 V
stroke
6947 140 M
[ [(Helvetica) 140.0 0.0 true true 0 ( 0.25)]
] -46.7 MCshow
1.000 UL
LTb
LCb setrgbcolor
1.000 UL
LTb
LCb setrgbcolor
546 4619 N
546 280 L
6401 0 V
0 4339 V
-6401 0 V
Z stroke
LTb
3746 4829 M
[ [(Helvetica) 140.0 0.0 true true 0 (Temperature)]
] -46.7 MCshow
1.000 UP
1.000 UL
LTb
LCb setrgbcolor
% Begin plot #1
1.000 UL
LT0
LC0 setrgbcolor
/Helvetica findfont 140 scalefont setfont
/vshift -46 def
1442 280 M
26 0 V
25 0 V
26 0 V
26 0 V
25 0 V
26 0 V
25 0 V
26 0 V
26 0 V
25 0 V
26 0 V
25 0 V
26 0 V
26 0 V
25 0 V
26 0 V
25 0 V
26 0 V
26 0 V
25 0 V
26 0 V
25 0 V
26 0 V
26 0 V
25 0 V
26 0 V
25 0 V
26 0 V
26 0 V
25 0 V
26 0 V
25 0 V
26 0 V
26 0 V
25 0 V
26 0 V
25 0 V
26 0 V
26 0 V
25 0 V
26 0 V
26 0 V
25 0 V
26 0 V
25 0 V
26 0 V
26 0 V
25 0 V
26 0 V
25 0 V
26 0 V
26 0 V
25 0 V
26 0 V
25 0 V
26 0 V
26 0 V
25 0 V
26 0 V
25 0 V
26 0 V
26 0 V
25 0 V
26 0 V
25 0 V
26 0 V
26 0 V
25 0 V
26 0 V
25 0 V
26 0 V
26 0 V
25 0 V
26 0 V
25 0 V
26 0 V
26 0 V
25 0 V
26 0 V
25 0 V
26 0 V
26 0 V
25 0 V
26 0 V
25 0 V
26 0 V
26 0 V
25 0 V
26 0 V
26 0 V
25 0 V
26 0 V
25 0 V
26 0 V
26 0 V
25 0 V
26 0 V
25 0 V
26 0 V
26 0 V
25 0 V
26 0 V
25 0 V
26 0 V
stroke 4105 280 M
26 0 V
25 0 V
26 0 V
25 0 V
26 0 V
26 0 V
25 0 V
26 0 V
25 0 V
26 0 V
26 0 V
25 0 V
26 0 V
25 0 V
26 0 V
26 0 V
25 0 V
26 0 V
25 0 V
26 0 V
26 0 V
25 0 V
26 0 V
25 0 V
26 0 V
26 0 V
25 0 V
26 0 V
25 0 V
26 0 V
26 0 V
25 0 V
26 0 V
25 0 V
26 0 V
26 0 V
25 0 V
26 0 V
26 0 V
25 0 V
26 0 V
25 0 V
26 0 V
26 0 V
25 0 V
26 0 V
25 0 V
26 0 V
26 0 V
25 0 V
26 0 V
25 0 V
26 0 V
26 0 V
25 0 V
26 0 V
25 0 V
26 0 V
26 0 V
25 0 V
26 0 V
25 0 V
26 0 V
26 0 V
25 0 V
26 0 V
25 0 V
26 0 V
26 0 V
25 0 V
26 0 V
25 0 V
26 0 V
26 0 V
25 0 V
26 0 V
25 0 V
26 0 V
26 0 V
25 0 V
26 0 V
25 0 V
26 0 V
26 0 V
25 0 V
26 0 V
26 0 V
25 0 V
26 0 V
25 0 V
26 0 V
26 0 V
25 0 V
26 0 V
25 0 V
26 0 V
26 0 V
25 0 V
26 0 V
25 0 V
26 0 V
26 0 V
25 0 V
26 0 V
stroke 6768 280 M
25 0 V
26 0 V
% End plot #1
% Begin plot #2
1.000 UP
stroke
LT1
LC1 setrgbcolor
/Helvetica findfont 140 scalefont setfont
1506 4167 Crs
1634 4514 Crs
1762 4400 Crs
1890 4322 Crs
2018 4248 Crs
2146 4295 Crs
2274 4381 Crs
2402 4435 Crs
2530 4455 Crs
2658 4459 Crs
2786 4459 Crs
2914 4458 Crs
3042 4458 Crs
3170 4458 Crs
3298 4457 Crs
3426 4457 Crs
3554 4457 Crs
3682 4457 Crs
3811 4457 Crs
3939 4457 Crs
4067 4457 Crs
4195 4457 Crs
4323 4457 Crs
4451 4457 Crs
4579 4457 Crs
4707 4457 Crs
4835 4457 Crs
4963 4457 Crs
5091 4457 Crs
5219 4457 Crs
5347 4457 Crs
5475 4457 Crs
5603 4457 Crs
5731 4457 Crs
5859 4457 Crs
5987 4457 Crs
6115 4457 Crs
6243 4457 Crs
6371 4457 Crs
6499 4457 Crs
6627 4457 Crs
6755 4457 Crs
% End plot #2
1.000 UL
LTb
LCb setrgbcolor
546 4619 N
546 280 L
6401 0 V
0 4339 V
-6401 0 V
Z stroke
1.000 UP
1.000 UL
LTb
LCb setrgbcolor
stroke
grestore
end
showpage
%%Page: 5 5
gnudict begin
gsave
doclip
50 50 translate
0.100 0.100 scale
90 rotate
0 -5040 translate
0 setgray
newpath
(Helvetica) findfont 140 scalefont setfont
BackgroundColor 0 lt 3 1 roll 0 lt exch 0 lt or or not {gsave BackgroundColor C clippath fill grestore} if
1.000 UL
LTb
LCb setrgbcolor
882 280 M
63 0 V
6002 0 R
-63 0 V
stroke
798 280 M
[ [(Helvetica) 140.0 0.0 true true 0 ( 0.00495)]
] -46.7 MRshow
1.000 UL
LTb
LCb setrgbcolor
882 714 M
63 0 V
6002 0 R
-63 0 V
stroke
798 714 M
[ [(Helvetica) 140.0 0.0 true true 0 ( 0.00496)]
] -46.7 MRshow
1.000 UL
LTb
LCb setrgbcolor
882 1148 M
63 0 V
6002 0 R
-63 0 V
stroke
798 1148 M
[ [(Helvetica) 140.0 0.0 true true 0 ( 0.00497)]
] -46.7 MRshow
1.000 UL
LTb
LCb setrgbcolor
882 1582 M
63 0 V
6002 0 R
-63 0 V
stroke
798 1582 M
[ [(Helvetica) 140.0 0.0 true true 0 ( 0.00498)]
] -46.7 MRshow
1.000 UL
LTb
LCb setrgbcolor
882 2016 M
63 0 V
6002 0 R
-63 0 V
stroke
798 2016 M
[ [(Helvetica) 140.0 0.0 true true 0 ( 0.00499)]
] -46.7 MRshow
1.000 UL
LTb
LCb setrgbcolor
882 2449 M
63 0 V
6002 0 R
-63 0 V
stroke
798 2449 M
[ [(Helvetica) 140.0 0.0 true true 0 ( 0.005)]
] -46.7 MRshow
1.000 UL
LTb
LCb setrgbcolor
882 2883 M
63 0 V
6002 0 R
-63 0 V
stroke
798 2883 M
[ [(Helvetica) 140.0 0.0 true true 0 ( 0.00501)]
] -46.7 MRshow
1.000 UL
LTb
LCb setrgbcolor
882 3317 M
63 0 V
6002 0 R
-63 0 V
stroke
798 3317 M
[ [(Helvetica) 140.0 0.0 true true 0 ( 0.00502)]
] -46.7 MRshow
1.000 UL
LTb
LCb setrgbcolor
882 3751 M
63 0 V
6002 0 R
-63 0 V
stroke
798 3751 M
[ [(Helvetica) 140.0 0.0 true true 0 ( 0.00503)]
] -46.7 MRshow
1.000 UL
LTb
LCb setrgbcolor
882 4185 M
63 0 V
6002 0 R
-63 0 V
stroke
798 4185 M
[ [(Helvetica) 140.0 0.0 true true 0 ( 0.00504)]
] -46.7 MRshow
1.000 UL
LTb
LCb setrgbcolor
882 4619 M
63 0 V
6002 0 R
-63 0 V
stroke
798 4619 M
[ [(Helvetica) 140.0 0.0 true true 0 ( 0.00505)]
] -46.7 MRshow
1.000 UL
LTb
LCb setrgbcolor
882 280 M
0 63 V
0 4276 R
0 -63 V
stroke
882 140 M
[ [(Helvetica) 140.0 0.0 true true 0 ( 0)]
] -46.7 MCshow
1.000 UL
LTb
LCb setrgbcolor
1489 280 M
0 63 V
0 4276 R
0 -63 V
stroke
1489 140 M
[ [(Helvetica) 140.0 0.0 true true 0 ( 0.1)]
] -46.7 MCshow
1.000 UL
LTb
LCb setrgbcolor
2095 280 M
0 63 V
0 4276 R
0 -63 V
stroke
2095 140 M
[ [(Helvetica) 140.0 0.0 true true 0 ( 0.2)]
] -46.7 MCshow
1.000 UL
LTb
LCb setrgbcolor
2702 280 M
0 63 V
0 4276 R
0 -63 V
stroke
2702 140 M
[ [(Helvetica) 140.0 0.0 true true 0 ( 0.3)]
] -46.7 MCshow
1.000 UL
LTb
LCb setrgbcolor
3308 280 M
0 63 V
0 4276 R
0 -63 V
stroke
3308 140 M
[ [(Helvetica) 140.0 0.0 true true 0 ( 0.4)]
] -46.7 MCshow
1.000 UL
LTb
LCb setrgbcolor
3915 280 M
0 63 V
0 4276 R
0 -63 V
stroke
3915 140 M
[ [(Helvetica) 140.0 0.0 true true 0 ( 0.5)]
] -46.7 MCshow
1.000 UL
LTb
LCb setrgbcolor
4521 280 M
0 63 V
0 4276 R
0 -63 V
stroke
4521 140 M
[ [(Helvetica) 140.0 0.0 true true 0 ( 0.6)]
] -46.7 MCshow
1.000 UL
LTb
LCb setrgbcolor
5128 280 M
0 63 V
0 4276 R
0 -63 V
stroke
5128 140 M
[ [(Helvetica) 140.0 0.0 true true 0 ( 0.7)]
] -46.7 MCshow
1.000 UL
LTb
LCb setrgbcolor
5734 280 M
0 63 V
0 4276 R
0 -63 V
stroke
5734 140 M
[ [(Helvetica) 140.0 0.0 true true 0 ( 0.8)]
] -46.7 MCshow
1.000 UL
LTb
LCb setrgbcolor
6340 280 M
0 63 V
0 4276 R
0 -63 V
stroke
6340 140 M
[ [(Helvetica) 140.0 0.0 true true 0 ( 0.9)]
] -46.7 MCshow
1.000 UL
LTb
LCb setrgbcolor
6947 280 M
0 63 V
0 4276 R
0 -63 V
stroke
6947 140 M
[ [(Helvetica) 140.0 0.0 true true 0 ( 1)]
] -46.7 MCshow
1.000 UL
LTb
LCb setrgbcolor
1.000 UL
LTb
LCb setrgbcolor
882 4619 N
882 280 L
6065 0 V
0 4339 V
-6065 0 V
Z stroke
LTb
3914 4829 M
[ [(Helvetica) 140.0 0.0 true true 0 (Mesh size)]
] -46.7 MCshow
1.000 UP
1.000 UL
LTb
LCb setrgbcolor
% Begin plot #1
1.000 UP
1.000 UL
LT0
LC0 setrgbcolor
/Helvetica findfont 140 scalefont setfont
/vshift -46 def
897 2449 Circle
927 2449 Circle
958 2449 Circle
988 2449 Circle
1018 2449 Circle
1049 2449 Circle
1079 2449 Circle
1109 2449 Circle
1140 2449 Circle
1170 2449 Circle
1200 2449 Circle
1231 2449 Circle
1261 2449 Circle
1291 2449 Circle
1322 2449 Circle
1352 2449 Circle
1382 2449 Circle
1413 2449 Circle
1443 2449 Circle
1473 2449 Circle
1504 2449 Circle
1534 2449 Circle
1564 2449 Circle
1595 2449 Circle
1625 2449 Circle
1655 2449 Circle
1686 2449 Circle
1716 2449 Circle
1746 2449 Circle
1777 2449 Circle
1807 2449 Circle
1837 2449 Circle
1868 2449 Circle
1898 2449 Circle
1928 2449 Circle
1959 2449 Circle
1989 2449 Circle
2019 2449 Circle
2050 2449 Circle
2080 2449 Circle
2110 2449 Circle
2140 2449 Circle
2171 2449 Circle
2201 2449 Circle
2231 2449 Circle
2262 2449 Circle
2292 2449 Circle
2322 2449 Circle
2353 2449 Circle
2383 2449 Circle
2413 2449 Circle
2444 2449 Circle
2474 2449 Circle
2504 2449 Circle
2535 2449 Circle
2565 2449 Circle
2595 2449 Circle
2626 2449 Circle
2656 2449 Circle
2686 2449 Circle
2717 2449 Circle
2747 2449 Circle
2777 2449 Circle
2808 2449 Circle
2838 2449 Circle
2868 2449 Circle
2899 2449 Circle
2929 2449 Circle
2959 2449 Circle
2990 2449 Circle
3020 2449 Circle
3050 2449 Circle
3081 2449 Circle
3111 2449 Circle
3141 2449 Circle
3172 2449 Circle
3202 2449 Circle
3232 2449 Circle
3263 2449 Circle
3293 2449 Circle
3323 2449 Circle
3353 2449 Circle
3384 2449 Circle
3414 2449 Circle
3444 2449 Circle
3475 2449 Circle
3505 2449 Circle
3535 2449 Circle
3566 2449 Circle
3596 2449 Circle
3626 2449 Circle
3657 2449 Circle
3687 2449 Circle
3717 2449 Circle
3748 2449 Circle
3778 2449 Circle
3808 2449 Circle
3839 2449 Circle
3869 2449 Circle
3899 2449 Circle
3930 2449 Circle
3960 2449 Circle
3990 2449 Circle
4021 2449 Circle
4051 2449 Circle
4081 2449 Circle
4112 2449 Circle
4142 2449 Circle
4172 2449 Circle
4203 2449 Circle
4233 2449 Circle
4263 2449 Circle
4294 2449 Circle
4324 2449 Circle
4354 2449 Circle
4385 2449 Circle
4415 2449 Circle
4445 2449 Circle
4476 2449 Circle
4506 2449 Circle
4536 2449 Circle
4566 2449 Circle
4597 2449 Circle
4627 2449 Circle
4657 2449 Circle
4688 2449 Circle
4718 2449 Circle
4748 2449 Circle
4779 2449 Circle
4809 2449 Circle
4839 2449 Circle
4870 2449 Circle
4900 2449 Circle
4930 2449 Circle
4961 2449 Circle
4991 2449 Circle
5021 2449 Circle
5052 2449 Circle
5082 2449 Circle
5112 2449 Circle
5143 2449 Circle
5173 2449 Circle
5203 2449 Circle
5234 2449 Circle
5264 2449 Circle
5294 2449 Circle
5325 2449 Circle
5355 2449 Circle
5385 2449 Circle
5416 2449 Circle
5446 2449 Circle
5476 2449 Circle
5507 2449 Circle
5537 2449 Circle
5567 2449 Circle
5598 2449 Circle
5628 2449 Circle
5658 2449 Circle
5689 2449 Circle
5719 2449 Circle
5749 2449 Circle
5779 2449 Circle
5810 2449 Circle
5840 2449 Circle
5870 2449 Circle
5901 2449 Circle
5931 2449 Circle
5961 2449 Circle
5992 2449 Circle
6022 2449 Circle
6052 2449 Circle
6083 2449 Circle
6113 2449 Circle
6143 2449 Circle
6174 2449 Circle
6204 2449 Circle
6234 2449 Circle
6265 2449 Circle
6295 2449 Circle
6325 2449 Circle
6356 2449 Circle
6386 2449 Circle
6416 2449 Circle
6447 2449 Circle
6477 2449 Circle
6507 2449 Circle
6538 2449 Circle
6568 2449 Circle
6598 2449 Circle
6629 2449 Circle
6659 2449 Circle
6689 2449 Circle
6720 2449 Circle
6750 2449 Circle
6780 2449 Circle
6811 2449 Circle
6841 2449 Circle
6871 2449 Circle
6902 2449 Circle
6932 2449 Circle
% End plot #1
1.000 UL
LTb
LCb setrgbcolor
882 4619 N
882 280 L
6065 0 V
0 4339 V
-6065 0 V
Z stroke
1.000 UP
1.000 UL
LTb
LCb setrgbcolor
stroke
grestore
end
showpage
%%Page: 6 6
gnudict begin
gsave
doclip
50 50 translate
0.100 0.100 scale
90 rotate
0 -5040 translate
0 setgray
newpath
(Helvetica) findfont 140 scalefont setfont
BackgroundColor 0 lt 3 1 roll 0 lt exch 0 lt or or not {gsave BackgroundColor C clippath fill grestore} if
1.000 UL
LTb
LCb setrgbcolor
630 280 M
63 0 V
6254 0 R
-63 0 V
stroke
546 280 M
[ [(Helvetica) 140.0 0.0 true true 0 (-0.05)]
] -46.7 MRshow
1.000 UL
LTb
LCb setrgbcolor
630 1003 M
63 0 V
6254 0 R
-63 0 V
stroke
546 1003 M
[ [(Helvetica) 140.0 0.0 true true 0 ( 0)]
] -46.7 MRshow
1.000 UL
LTb
LCb setrgbcolor
630 1726 M
63 0 V
6254 0 R
-63 0 V
stroke
546 1726 M
[ [(Helvetica) 140.0 0.0 true true 0 ( 0.05)]
] -46.7 MRshow
1.000 UL
LTb
LCb setrgbcolor
630 2450 M
63 0 V
6254 0 R
-63 0 V
stroke
546 2450 M
[ [(Helvetica) 140.0 0.0 true true 0 ( 0.1)]
] -46.7 MRshow
1.000 UL
LTb
LCb setrgbcolor
630 3173 M
63 0 V
6254 0 R
-63 0 V
stroke
546 3173 M
[ [(Helvetica) 140.0 0.0 true true 0 ( 0.15)]
] -46.7 MRshow
1.000 UL
LTb
LCb setrgbcolor
630 3896 M
63 0 V
6254 0 R
-63 0 V
stroke
546 3896 M
[ [(Helvetica) 140.0 0.0 true true 0 ( 0.2)]
] -46.7 MRshow
1.000 UL
LTb
LCb setrgbcolor
630 4619 M
63 0 V
6254 0 R
-63 0 V
stroke
546 4619 M
[ [(Helvetica) 140.0 0.0 true true 0 ( 0.25)]
] -46.7 MRshow
1.000 UL
LTb
LCb setrgbcolor
630 280 M
0 63 V
0 4276 R
0 -63 V
stroke
630 140 M
[ [(Helvetica) 140.0 0.0 true true 0 ( 0)]
] -46.7 MCshow
1.000 UL
LTb
LCb setrgbcolor
1262 280 M
0 63 V
0 4276 R
0 -63 V
stroke
1262 140 M
[ [(Helvetica) 140.0 0.0 true true 0 ( 0.1)]
] -46.7 MCshow
1.000 UL
LTb
LCb setrgbcolor
1893 280 M
0 63 V
0 4276 R
0 -63 V
stroke
1893 140 M
[ [(Helvetica) 140.0 0.0 true true 0 ( 0.2)]
] -46.7 MCshow
1.000 UL
LTb
LCb setrgbcolor
2525 280 M
0 63 V
0 4276 R
0 -63 V
stroke
2525 140 M
[ [(Helvetica) 140.0 0.0 true true 0 ( 0.3)]
] -46.7 MCshow
1.000 UL
LTb
LCb setrgbcolor
3157 280 M
0 63 V
0 4276 R
0 -63 V
stroke
3157 140 M
[ [(Helvetica) 140.0 0.0 true true 0 ( 0.4)]
] -46.7 MCshow
1.000 UL
LTb
LCb setrgbcolor
3789 280 M
0 63 V
0 4276 R
0 -63 V
stroke
3789 140 M
[ [(Helvetica) 140.0 0.0 true true 0 ( 0.5)]
] -46.7 MCshow
1.000 UL
LTb
LCb setrgbcolor
4420 280 M
0 63 V
0 4276 R
0 -63 V
stroke
4420 140 M
[ [(Helvetica) 140.0 0.0 true true 0 ( 0.6)]
] -46.7 MCshow
1.000 UL
LTb
LCb setrgbcolor
5052 280 M
0 63 V
0 4276 R
0 -63 V
stroke
5052 140 M
[ [(Helvetica) 140.0 0.0 true true 0 ( 0.7)]
] -46.7 MCshow
1.000 UL
LTb
LCb setrgbcolor
5684 280 M
0 63 V
0 4276 R
0 -63 V
stroke
5684 140 M
[ [(Helvetica) 140.0 0.0 true true 0 ( 0.8)]
] -46.7 MCshow
1.000 UL
LTb
LCb setrgbcolor
6315 280 M
0 63 V
0 4276 R
0 -63 V
stroke
6315 140 M
[ [(Helvetica) 140.0 0.0 true true 0 ( 0.9)]
] -46.7 MCshow
1.000 UL
LTb
LCb setrgbcolor
6947 280 M
0 63 V
0 4276 R
0 -63 V
stroke
6947 140 M
[ [(Helvetica) 140.0 0.0 true true 0 ( 1)]
] -46.7 MCshow
1.000 UL
LTb
LCb setrgbcolor
1.000 UL
LTb
LCb setrgbcolor
630 4619 N
630 280 L
6317 0 V
0 4339 V
-6317 0 V
Z stroke
LTb
3788 4829 M
[ [(Helvetica) 140.0 0.0 true true 0 (Fluid and mesh velocity)]
] -46.7 MCshow
1.000 UP
1.000 UL
LTb
LCb setrgbcolor
% Begin plot #1
1.000 UL
LT0
LC0 setrgbcolor
LCb setrgbcolor
6296 4486 M
[ [(Helvetica) 140.0 0.0 true true 0 (Fluid vel)]
] -46.7 MRshow
LT0
6380 4486 M
399 0 V
851 4584 M
6 0 V
7 0 V
6 0 V
6 0 V
7 0 V
0 -838 R
6 0 V
6 0 V
7 0 V
6 0 V
6 0 V
0 -724 R
7 0 V
6 0 V
6 0 V
7 0 V
6 0 V
0 -1137 R
6 0 V
6 0 V
7 0 V
6 0 V
6 0 V
0 -770 R
7 0 V
6 0 V
6 0 V
7 0 V
6 0 V
0 -281 R
6 0 V
7 0 V
6 0 V
6 0 V
7 0 V
0 27 R
6 0 V
6 0 V
7 0 V
6 0 V
6 0 V
0 78 R
7 0 V
6 0 V
6 0 V
6 0 V
7 0 V
0 45 R
6 0 V
6 0 V
7 0 V
6 0 V
6 0 V
0 17 R
7 0 V
6 0 V
6 0 V
7 0 V
6 0 V
0 3 R
6 0 V
7 0 V
6 0 V
6 0 V
7 0 V
6 0 V
6 0 V
6 0 V
7 0 V
6 0 V
0 -1 R
6 0 V
7 0 V
6 0 V
6 0 V
7 0 V
6 0 V
6 0 V
7 0 V
6 0 V
6 0 V
7 0 V
6 0 V
6 0 V
7 0 V
6 0 V
6 0 V
7 0 V
6 0 V
6 0 V
6 0 V
7 0 V
6 0 V
6 0 V
7 0 V
6 0 V
6 0 V
7 0 V
6 0 V
6 0 V
7 0 V
6 0 V
stroke 1426 1003 M
6 0 V
7 0 V
6 0 V
6 0 V
7 0 V
6 0 V
6 0 V
6 0 V
7 0 V
6 0 V
6 0 V
7 0 V
6 0 V
6 0 V
7 0 V
6 0 V
6 0 V
7 0 V
6 0 V
6 0 V
7 0 V
6 0 V
6 0 V
7 0 V
6 0 V
6 0 V
7 0 V
6 0 V
6 0 V
6 0 V
7 0 V
6 0 V
6 0 V
7 0 V
6 0 V
6 0 V
7 0 V
6 0 V
6 0 V
7 0 V
6 0 V
6 0 V
7 0 V
6 0 V
6 0 V
7 0 V
6 0 V
6 0 V
6 0 V
7 0 V
6 0 V
6 0 V
7 0 V
6 0 V
6 0 V
7 0 V
6 0 V
6 0 V
7 0 V
6 0 V
6 0 V
7 0 V
6 0 V
6 0 V
7 0 V
6 0 V
6 0 V
6 0 V
7 0 V
6 0 V
6 0 V
7 0 V
6 0 V
6 0 V
7 0 V
6 0 V
6 0 V
7 0 V
6 0 V
6 0 V
7 0 V
6 0 V
6 0 V
7 0 V
6 0 V
6 0 V
7 0 V
6 0 V
6 0 V
6 0 V
7 0 V
6 0 V
6 0 V
7 0 V
6 0 V
6 0 V
7 0 V
6 0 V
6 0 V
7 0 V
6 0 V
6 0 V
7 0 V
6 0 V
stroke 2083 1003 M
6 0 V
7 0 V
6 0 V
6 0 V
6 0 V
7 0 V
6 0 V
6 0 V
7 0 V
6 0 V
6 0 V
7 0 V
6 0 V
6 0 V
7 0 V
% End plot #1
% Begin plot #2
1.000 UP
stroke
LT1
LC1 setrgbcolor
LCb setrgbcolor
6296 4346 M
[ [(Helvetica) 140.0 0.0 true true 0 (Mesh vel)]
] -46.7 MRshow
LT1
6380 4346 M
399 0 V
646 1003 M
31 0 V
32 0 V
32 0 V
31 0 V
32 0 V
31 0 V
32 0 V
31 0 V
32 0 V
32 0 V
31 0 V
32 0 V
31 0 V
32 0 V
32 0 V
31 0 V
32 0 V
31 0 V
32 0 V
31 0 V
32 0 V
32 0 V
31 0 V
32 0 V
31 0 V
32 0 V
32 0 V
31 0 V
32 0 V
31 0 V
32 0 V
32 0 V
31 0 V
32 0 V
31 0 V
32 0 V
31 0 V
32 0 V
32 0 V
31 0 V
32 0 V
31 0 V
32 0 V
32 0 V
31 0 V
32 0 V
31 0 V
32 0 V
31 0 V
32 0 V
32 0 V
31 0 V
32 0 V
31 0 V
32 0 V
32 0 V
31 0 V
32 0 V
31 0 V
32 0 V
31 0 V
32 0 V
32 0 V
31 0 V
32 0 V
31 0 V
32 0 V
32 0 V
31 0 V
32 0 V
31 0 V
32 0 V
31 0 V
32 0 V
32 0 V
31 0 V
32 0 V
31 0 V
32 0 V
32 0 V
31 0 V
32 0 V
31 0 V
32 0 V
32 0 V
31 0 V
32 0 V
31 0 V
32 0 V
31 0 V
32 0 V
32 0 V
31 0 V
32 0 V
31 0 V
32 0 V
32 0 V
31 0 V
32 0 V
31 0 V
32 0 V
31 0 V
stroke 3867 1003 M
32 0 V
32 0 V
31 0 V
32 0 V
31 0 V
32 0 V
32 0 V
31 0 V
32 0 V
31 0 V
32 0 V
31 0 V
32 0 V
32 0 V
31 0 V
32 0 V
31 0 V
32 0 V
32 0 V
31 0 V
32 0 V
31 0 V
32 0 V
32 0 V
31 0 V
32 0 V
31 0 V
32 0 V
31 0 V
32 0 V
32 0 V
31 0 V
32 0 V
31 0 V
32 0 V
32 0 V
31 0 V
32 0 V
31 0 V
32 0 V
31 0 V
32 0 V
32 0 V
31 0 V
32 0 V
31 0 V
32 0 V
32 0 V
31 0 V
32 0 V
31 0 V
32 0 V
31 0 V
32 0 V
32 0 V
31 0 V
32 0 V
31 0 V
32 0 V
32 0 V
31 0 V
32 0 V
31 0 V
32 0 V
31 0 V
32 0 V
32 0 V
31 0 V
32 0 V
31 0 V
32 0 V
32 0 V
31 0 V
32 0 V
31 0 V
32 0 V
32 0 V
31 0 V
32 0 V
31 0 V
32 0 V
31 0 V
32 0 V
32 0 V
31 0 V
32 0 V
31 0 V
32 0 V
32 0 V
31 0 V
32 0 V
31 0 V
32 0 V
31 0 V
32 0 V
32 0 V
31 0 V
646 1003 Crs
677 1003 Crs
709 1003 Crs
741 1003 Crs
772 1003 Crs
804 1003 Crs
835 1003 Crs
867 1003 Crs
898 1003 Crs
930 1003 Crs
962 1003 Crs
993 1003 Crs
1025 1003 Crs
1056 1003 Crs
1088 1003 Crs
1120 1003 Crs
1151 1003 Crs
1183 1003 Crs
1214 1003 Crs
1246 1003 Crs
1277 1003 Crs
1309 1003 Crs
1341 1003 Crs
1372 1003 Crs
1404 1003 Crs
1435 1003 Crs
1467 1003 Crs
1499 1003 Crs
1530 1003 Crs
1562 1003 Crs
1593 1003 Crs
1625 1003 Crs
1657 1003 Crs
1688 1003 Crs
1720 1003 Crs
1751 1003 Crs
1783 1003 Crs
1814 1003 Crs
1846 1003 Crs
1878 1003 Crs
1909 1003 Crs
1941 1003 Crs
1972 1003 Crs
2004 1003 Crs
2036 1003 Crs
2067 1003 Crs
2099 1003 Crs
2130 1003 Crs
2162 1003 Crs
2193 1003 Crs
2225 1003 Crs
2257 1003 Crs
2288 1003 Crs
2320 1003 Crs
2351 1003 Crs
2383 1003 Crs
2415 1003 Crs
2446 1003 Crs
2478 1003 Crs
2509 1003 Crs
2541 1003 Crs
2572 1003 Crs
2604 1003 Crs
2636 1003 Crs
2667 1003 Crs
2699 1003 Crs
2730 1003 Crs
2762 1003 Crs
2794 1003 Crs
2825 1003 Crs
2857 1003 Crs
2888 1003 Crs
2920 1003 Crs
2951 1003 Crs
2983 1003 Crs
3015 1003 Crs
3046 1003 Crs
3078 1003 Crs
3109 1003 Crs
3141 1003 Crs
3173 1003 Crs
3204 1003 Crs
3236 1003 Crs
3267 1003 Crs
3299 1003 Crs
3331 1003 Crs
3362 1003 Crs
3394 1003 Crs
3425 1003 Crs
3457 1003 Crs
3488 1003 Crs
3520 1003 Crs
3552 1003 Crs
3583 1003 Crs
3615 1003 Crs
3646 1003 Crs
3678 1003 Crs
3710 1003 Crs
3741 1003 Crs
3773 1003 Crs
3804 1003 Crs
3836 1003 Crs
3867 1003 Crs
3899 1003 Crs
3931 1003 Crs
3962 1003 Crs
3994 1003 Crs
4025 1003 Crs
4057 1003 Crs
4089 1003 Crs
4120 1003 Crs
4152 1003 Crs
4183 1003 Crs
4215 1003 Crs
4246 1003 Crs
4278 1003 Crs
4310 1003 Crs
4341 1003 Crs
4373 1003 Crs
4404 1003 Crs
4436 1003 Crs
4468 1003 Crs
4499 1003 Crs
4531 1003 Crs
4562 1003 Crs
4594 1003 Crs
4626 1003 Crs
4657 1003 Crs
4689 1003 Crs
4720 1003 Crs
4752 1003 Crs
4783 1003 Crs
4815 1003 Crs
4847 1003 Crs
4878 1003 Crs
4910 1003 Crs
4941 1003 Crs
4973 1003 Crs
5005 1003 Crs
5036 1003 Crs
5068 1003 Crs
5099 1003 Crs
5131 1003 Crs
5162 1003 Crs
5194 1003 Crs
5226 1003 Crs
5257 1003 Crs
5289 1003 Crs
5320 1003 Crs
5352 1003 Crs
5384 1003 Crs
5415 1003 Crs
5447 1003 Crs
5478 1003 Crs
5510 1003 Crs
5541 1003 Crs
5573 1003 Crs
5605 1003 Crs
5636 1003 Crs
5668 1003 Crs
5699 1003 Crs
5731 1003 Crs
5763 1003 Crs
5794 1003 Crs
5826 1003 Crs
5857 1003 Crs
5889 1003 Crs
5920 1003 Crs
5952 1003 Crs
5984 1003 Crs
6015 1003 Crs
6047 1003 Crs
6078 1003 Crs
6110 1003 Crs
6142 1003 Crs
6173 1003 Crs
6205 1003 Crs
6236 1003 Crs
6268 1003 Crs
6300 1003 Crs
6331 1003 Crs
6363 1003 Crs
6394 1003 Crs
6426 1003 Crs
6457 1003 Crs
6489 1003 Crs
6521 1003 Crs
6552 1003 Crs
6584 1003 Crs
6615 1003 Crs
6647 1003 Crs
6679 1003 Crs
6710 1003 Crs
6742 1003 Crs
6773 1003 Crs
6805 1003 Crs
6836 1003 Crs
6868 1003 Crs
6900 1003 Crs
6931 1003 Crs
6579 4346 Crs
% End plot #2
1.000 UL
LTb
LCb setrgbcolor
630 4619 N
630 280 L
6317 0 V
0 4339 V
-6317 0 V
Z stroke
1.000 UP
1.000 UL
LTb
LCb setrgbcolor
stroke
grestore
end
showpage
%%Trailer
%%DocumentFonts: Helvetica
%%Pages: 6
